<?xml version="1.0" encoding="UTF-8" standalone="no"?>
<!-- Created with Inkscape (http://www.inkscape.org/) -->

<svg
   xmlns:dc="http://purl.org/dc/elements/1.1/"
   xmlns:cc="http://creativecommons.org/ns#"
   xmlns:rdf="http://www.w3.org/1999/02/22-rdf-syntax-ns#"
   xmlns:svg="http://www.w3.org/2000/svg"
   xmlns="http://www.w3.org/2000/svg"
   xmlns:sodipodi="http://sodipodi.sourceforge.net/DTD/sodipodi-0.dtd"
   xmlns:inkscape="http://www.inkscape.org/namespaces/inkscape"
   width="97mm"
   height="12mm"
   viewBox="0 0 97 12"
   version="1.1"
   id="svg934"
   inkscape:version="0.92.5 (2060ec1f9f, 2020-04-08)"
   sodipodi:docname="captacha_1.svg">
  <defs
     id="defs928" />
  <sodipodi:namedview
     id="base"
     pagecolor="#ffffff"
     bordercolor="#666666"
     borderopacity="1.0"
     inkscape:pageopacity="0.0"
     inkscape:pageshadow="2"
     inkscape:zoom="2.8284271"
     inkscape:cx="-83.952728"
     inkscape:cy="108.23145"
     inkscape:document-units="mm"
     inkscape:current-layer="layer1"
     showgrid="false"
     inkscape:window-width="1600"
     inkscape:window-height="1141"
     inkscape:window-x="0"
     inkscape:window-y="0"
     inkscape:window-maximized="1"
     showguides="true"
     inkscape:guide-bbox="true"
     inkscape:snap-global="false">
    <sodipodi:guide
       position="45.508,10"
       orientation="0,1"
       id="guide1418"
       inkscape:locked="false"
       inkscape:label=""
       inkscape:color="rgb(0,0,255)" />
    <sodipodi:guide
       position="44.979167,6"
       orientation="0,1"
       id="guide1420"
       inkscape:locked="false"
       inkscape:label=""
       inkscape:color="rgb(0,0,255)" />
    <sodipodi:guide
       position="44.185417,2"
       orientation="0,1"
       id="guide1422"
       inkscape:locked="false"
       inkscape:label=""
       inkscape:color="rgb(0,0,255)" />
    <sodipodi:guide
       position="88.767708,8"
       orientation="0,1"
       id="guide1436"
       inkscape:locked="false"
       inkscape:label=""
       inkscape:color="rgb(0,0,255)" />
    <sodipodi:guide
       position="63.212585,4"
       orientation="0,1"
       id="guide1463"
       inkscape:locked="false"
       inkscape:label=""
       inkscape:color="rgb(0,0,255)" />
  </sodipodi:namedview>
  <metadata
     id="metadata931">
    <rdf:RDF>
      <cc:Work
         rdf:about="">
        <dc:format>image/svg+xml</dc:format>
        <dc:type
           rdf:resource="http://purl.org/dc/dcmitype/StillImage" />
        <dc:title></dc:title>
      </cc:Work>
    </rdf:RDF>
  </metadata>
  <g
     inkscape:label="Calque 1"
     inkscape:groupmode="layer"
     id="layer1"
     transform="translate(0,-285)">
    <path
       style="fill:#000000;stroke-width:1"
       d="m 26.155143,284.18945 c -0.105105,0.0473 -0.248448,0.0841 -0.275391,0.21485 0.01721,0.39105 0.01348,0.78252 0.01367,1.17382 -0.0059,0.30274 -0.01172,0.60547 -0.01758,0.90821 -0.0033,0.056 -0.0065,0.11198 -0.0098,0.16797 -0.240046,0.10739 -0.492328,0.183 -0.740234,0.26953 -0.122838,0.0355 -0.207727,0.13784 -0.302735,0.21679 0.0017,0.11578 0.03129,0.22934 0.08008,0.33399 0.202278,0.0371 0.421204,0.078 0.617188,-0.008 0.03036,-0.0295 0.04571,-0.10387 0.101562,-0.0879 0.129163,-0.007 0.247598,0.11739 0.232422,0.24609 0.04036,0.70573 0.08073,1.41146 0.121094,2.11719 0.02142,0.28999 0.04805,0.57951 0.08002,0.86854 0.0384,0.28666 0.07687,0.57331 0.115297,0.85997 0.04453,0.2586 0.125404,0.50855 0.199218,0.75977 0.118041,0.22126 0.229508,0.45903 0.429688,0.61914 0.252303,0.0695 0.514972,0.0216 0.770967,0.006 0.114102,0.004 0.22821,0.008 0.342314,0.0117 0.193048,-0.15451 0.337977,-0.38231 0.355469,-0.63281 -0.25799,-0.0299 -0.51847,-0.0275 -0.777344,-0.0117 -0.19987,0.006 -0.399739,0.0117 -0.599609,0.0176 -0.105799,-0.23704 -0.188931,-0.4837 -0.25586,-0.73437 -0.04883,-0.29102 -0.09766,-0.58203 -0.146484,-0.87305 -0.0345,-0.29687 -0.06901,-0.59375 -0.103516,-0.89062 -0.02344,-0.38998 -0.04687,-0.77995 -0.07031,-1.16992 -0.0088,-0.2818 -0.02296,-0.56381 -0.0098,-0.84571 0.0026,-0.0605 0.0052,-0.12109 0.0078,-0.18164 0.02763,-0.0258 0.06913,0.0237 0.0918,-0.01 0.256773,-0.059 0.51465,0.0406 0.742187,0.15234 0.05251,0.0201 0.105097,0.0526 0.164063,0.043 0.126773,-0.0946 0.05476,-0.28963 0.175781,-0.38867 -0.07179,-0.0635 -0.0094,-0.15977 0.0293,-0.22266 0.02435,-0.0512 0.06836,-0.0977 0.06641,-0.1582 -0.266769,-0.0274 -0.535005,-0.0455 -0.798828,-0.0957 -0.159505,-0.043 -0.319011,-0.0859 -0.478516,-0.1289 -0.03415,-0.1357 0.103564,-0.27162 0.01367,-0.40039 -0.01291,-0.0308 0.03739,-0.0497 0.01367,-0.0801 0.0096,-0.0333 0.02031,-0.072 0.0039,-0.10547 0.0046,-0.43945 0.0091,-0.87891 0.01367,-1.31836 -0.01921,-0.20596 -0.03475,-0.41291 -0.08008,-0.61523 -0.03077,-0.0264 -0.07548,-0.0424 -0.115234,-0.0273 z"
       id="path894"
       inkscape:connector-curvature="0" />
    <path
       style="fill:#000000;stroke-width:1"
       d="m 74.785528,285.68472 c -0.562914,0.16842 0.04111,0.64867 -0.06013,0.9532 -0.0742,0.33089 0.482167,0.72917 -0.08766,1.00982 -0.455121,-0.0196 -1.117238,0.2479 -0.489445,0.41693 0.286639,-0.0365 0.558482,0.57117 0.65165,0.83999 0.303051,0.19678 0.103802,0.60694 0.22801,0.91986 0.0081,0.48386 0.368753,1.1953 -0.327686,1.31466 -0.425294,-0.0886 -0.757987,-0.49335 -1.081969,-0.76472 -0.274788,-0.24519 -0.154133,-1.28117 -0.728697,-0.74903 -0.225835,0.48325 -0.825166,-0.16248 -1.06648,-0.35986 -0.240487,0.0466 -0.816723,-0.47023 -0.558471,-0.12801 -0.458296,-0.20395 -1.027174,-0.46077 -1.272612,-0.87728 -0.502335,-0.27393 -0.890942,-0.72749 -1.436529,-0.92745 -0.63033,0.063 -0.424267,0.76799 0.06778,0.87505 0.312682,0.41642 0.771821,0.67199 1.116041,1.06113 0.365572,0.33738 1.197116,0.46994 1.207887,1.0035 -0.121108,0.57092 -0.25373,1.14919 -0.357103,1.72823 -0.102195,0.51597 0.240951,1.41546 0.770821,0.75126 -0.184983,-0.33009 -0.379352,-0.6617 -0.09033,-1.03182 0.08524,-0.24939 0.01029,-0.83655 0.192307,-0.89789 0.103894,0.5688 0.250656,1.1417 0.34798,1.7068 0.03979,0.23712 -0.670695,0.43066 -0.92951,0.62599 -0.536427,0.19177 -1.02701,0.45348 -1.531689,0.65939 -0.61944,6.6e-4 -1.009637,0.56056 -0.455724,1.00466 0.491435,-0.22215 0.996731,-0.57427 1.535761,-0.77212 0.667671,-0.21962 1.131731,-0.87246 1.868787,-0.90626 0.470966,-0.32363 1.107974,-0.50895 1.657529,-0.51111 0.173324,-0.30941 0.714889,-0.31374 1.026642,-0.42291 0.511799,0.33357 1.010735,0.6933 1.525804,1.0174 0.661657,0.5558 1.483601,0.8855 2.138289,1.45154 0.409601,0.17423 0.976027,0.90485 1.391147,0.53975 -0.115308,-0.28826 0.198575,-0.65963 -0.220234,-0.92809 -0.808902,-0.10702 -1.257622,-0.87886 -1.970328,-1.18186 -0.350486,-0.14025 -0.484859,-0.47159 0.0047,-0.48576 0.401666,-0.33767 0.977021,-0.48467 1.079823,-1.10813 0.460128,-0.74226 0.270229,0.79196 0.674989,0.97373 0.365858,0.19289 0.502684,-0.37384 0.872416,-0.34206 0.783232,-0.21733 -0.193001,-0.31249 -0.455785,-0.44751 -0.428911,-0.30016 -0.122997,-1.02209 -0.219422,-1.49212 0.01521,-0.43882 -0.0089,-0.90901 0.383244,-1.18676 0.187857,-0.25629 0.875795,-0.25857 0.456697,-0.65612 0.15947,-0.18339 0.235525,-0.58554 -0.13631,-0.3454 -0.496435,0.1856 -0.952304,0.46606 -1.438156,0.67386 -0.477396,0.29108 -0.950611,0.52058 -1.47954,0.29599 -0.662008,0.0665 -0.780221,0.88334 -1.297551,1.11478 -0.29651,0.0935 -0.875059,0.75736 -0.813194,0.0779 -0.178046,-0.81058 -0.235822,-1.15179 -0.137472,-2.25186 0.741354,-0.0798 0.756082,-0.30946 -0.0078,-0.39307 -0.308822,-1.14958 -0.183586,-0.93432 -0.288366,-1.46216 -0.174252,-0.14384 0.233482,-0.38699 -0.260072,-0.38609 z m 0.0385,2.19569 c 0.223117,0.0832 0.07914,1.1283 -0.142436,0.4241 -0.148198,-0.1603 -0.282828,-0.44953 0.142436,-0.4241 z m 3.934367,2.2087 c -0.125714,0.47762 -0.04295,1.35668 -0.644921,1.49345 -0.235644,0.16277 -0.177941,0.6651 -0.643372,0.68833 -0.627121,0.34405 -1.011243,-0.93436 -0.418465,-1.11721 0.484881,-0.30514 0.859073,-0.74195 1.408912,-0.93355 0.09843,-0.0454 0.195334,-0.0951 0.297846,-0.13102 z m -6.73654,0.62219 c 0.444659,-0.0572 0.200242,0.47881 0.185002,0.72657 -0.191865,0.094 -0.172228,-0.58618 -0.185002,-0.72657 z m 0.70435,0.37827 c 0.656699,-0.0297 0.763966,1.07377 0.06718,1.13016 -0.503033,0.19068 -0.146357,-0.9326 -0.06718,-1.13016 z m 3.596164,0.49093 c 0.01468,0.23681 0.479787,1.07448 -0.11834,0.59273 -0.388321,-0.1273 -0.260012,-0.57024 0.11834,-0.59273 z"
       id="path892"
       inkscape:connector-curvature="0"
       sodipodi:nodetypes="ccccccccccccccccccccccccccccccccccccccccccccccccccccccccccccccccccccc" />
    <path
       style="fill:#000000;stroke-width:1"
       d="m 61.961129,285.64617 c -0.322942,-0.0177 -0.419787,0.25416 -0.347323,0.46373 -0.0096,0.48436 -0.0456,0.96868 -0.04129,1.45364 -0.0085,1.03095 -0.0259,2.03371 0.113702,3.29862 0.08527,0.50002 0.127408,1.00739 0.178059,1.51121 0.0294,0.2335 -0.09962,0.64533 0.180343,0.7307 0.315852,-0.0911 0.42059,-0.4705 0.328327,-0.74743 -0.112035,-0.28198 -0.115798,-0.59533 -0.161912,-0.89393 -0.222212,-0.67648 -0.249654,-1.34249 -0.291526,-2.34453 -0.01995,-0.76611 0.05956,-2.95831 0.181371,-3.19329 0.06136,-0.12423 0.09528,-0.26218 -0.139745,-0.27872 z"
       id="path890"
       inkscape:connector-curvature="0"
       sodipodi:nodetypes="cccccccccccc" />
    <path
       style="fill:#000000;stroke-width:1"
       d="m 16.703971,284.51367 c -0.05713,0.0164 -0.120145,0.0245 -0.166016,0.0664 -0.03364,0.0323 -0.08589,0.0533 -0.09766,0.10351 -0.05646,0.0869 -0.06469,0.19169 -0.08203,0.29102 -0.01279,0.27244 -0.01704,0.54586 -0.05469,0.81641 l -0.111328,0.9121 c 0.0028,0.0845 0.02077,0.17216 -0.0098,0.25391 -0.01104,0.0497 -0.03941,0.0997 -0.08789,0.12109 -0.04563,0.0147 -0.08795,0.0491 -0.138672,0.043 -0.137531,0.019 -0.275304,-0.004 -0.412109,-0.0176 -0.05213,0.0151 -0.11047,0.0189 -0.154297,0.0547 -0.04409,0.0305 -0.09905,0.058 -0.113282,0.11524 -0.02651,0.0543 -0.03158,0.11485 -0.03906,0.17383 0.0079,0.0426 -3.74e-4,0.0894 0.02148,0.1289 0.01,0.051 0.04428,0.0914 0.07031,0.13477 0.05458,0.0385 0.106762,0.0911 0.177734,0.0957 0.143722,0.008 0.285974,-0.0287 0.429688,-0.0137 0.04352,0.007 0.09509,-0.001 0.130859,0.0312 0.02708,0.0217 0.0703,0.0328 0.08203,0.0703 l 0.0098,0.0117 0.01172,0.0469 c 0.01638,0.0272 -0.0073,0.0559 0.002,0.084 0.0085,0.0363 -0.02033,0.0676 -0.01367,0.10351 -0.02395,0.27999 -0.0196,0.5611 -0.01953,0.8418 l 0.02148,1.06836 0.0293,0.8711 c 0.01618,0.26125 0.0681,0.5181 0.113281,0.77539 0.06807,0.25214 0.158523,0.4975 0.26136,0.73741 0.02412,0.0498 0.04842,0.0995 0.07262,0.1493 0.06901,0.0527 0.13802,0.10547 0.207031,0.15821 0.178468,0.0657 0.366437,0.11287 0.557643,0.11176 0.286196,0.002 0.572361,-0.01 0.858244,-0.0228 0.03685,0.002 0.07174,-0.0606 0.10755,-0.0678 0.03453,-0.0431 0.07515,-0.10027 0.05664,-0.16434 l -0.002,-0.0548 -0.002,-0.0503 c 0.196488,0.19954 0.38595,0.41018 0.601562,0.58204 0.09828,0.0332 0.203462,0.0552 0.304688,0.0274 0.251783,-0.0601 0.490667,-0.17268 0.732421,-0.27163 0.120778,-0.0564 0.225539,-0.14753 0.332032,-0.2328 0.140119,-0.13592 0.275468,-0.27958 0.427734,-0.39717 0.04404,-0.002 0.09457,-0.0146 0.132813,0.0206 0.06815,0.0559 0.123851,0.1327 0.154297,0.22369 l 0.01562,0.0273 c 0.02135,0.0181 0.0481,0.0293 0.0625,0.057 0.114427,0.0813 0.226145,0.17383 0.357422,0.21456 0.123005,0.0561 0.25507,0.0796 0.386719,0.0799 0.417704,-0.21769 0.603899,-0.12154 0.945321,-0.3675 0.06837,-0.0591 0.117487,-0.14141 0.173828,-0.21455 0.02473,-0.0608 0.06019,-0.12094 0.05664,-0.19174 v -0.0548 l -0.01758,-0.0434 -0.0332,-0.0365 c -0.03936,-0.0105 -0.07604,-0.0517 -0.119141,-0.0365 -0.04218,10e-4 -0.08972,-0.008 -0.126953,0.0228 -0.244313,0.0893 -0.495689,0.14918 -0.75,0.1826 -0.08662,-0.0247 -0.177063,-0.0418 -0.253906,-0.0982 -0.06215,-0.0449 -0.13005,-0.0837 -0.177734,-0.15065 -0.05013,-0.0601 -0.110504,-0.11301 -0.140625,-0.19173 -0.101301,-0.20328 -0.14182,-0.43774 -0.1646,-0.66882 -0.02513,-0.31929 -0.04855,-0.63896 -0.08367,-0.95704 -0.0203,-0.18909 -0.03947,-0.37834 -0.05837,-0.56762 -0.05795,-0.0327 -0.115527,-0.0815 -0.183594,-0.0754 -0.07754,-0.001 -0.158279,0.0264 -0.21289,0.0936 -0.05432,0.0453 -0.08665,0.11441 -0.119141,0.18032 -0.01577,0.0617 -0.04385,0.12106 -0.04297,0.18716 -0.01249,0.0716 -0.0029,0.14465 -0.002,0.21684 0.0082,0.0638 0.03118,0.12612 0.02539,0.19173 0.0035,0.3203 0.01264,0.641 -0.0059,0.96094 -0.04837,0.21261 -0.09051,0.42844 -0.167969,0.62996 -0.129385,0.23995 -0.285181,0.37487 -0.486328,0.44962 -0.124543,0.0603 -0.260653,0.0798 -0.394532,0.0821 -0.220054,-0.008 -0.43964,-0.10471 -0.602957,-0.27896 -0.06539,-0.066 -0.118255,-0.14662 -0.17634,-0.2209 -0.0082,-0.0764 -0.03933,-0.14553 -0.05664,-0.21912 -0.110383,-0.38616 0.01266,-0.79353 0.216797,-1.03398 0.08094,-0.10693 0.175348,-0.2045 0.291015,-0.25564 0.123718,-0.0783 0.268583,-0.0645 0.404297,-0.073 0.120541,5.4e-4 0.240904,0.008 0.361328,0.0137 0.04062,0.005 0.0835,0.0444 0.125,0.0182 0.03606,-0.0225 0.09377,-0.006 0.109375,-0.0639 0.03498,-0.0561 0.07948,-0.1088 0.08984,-0.18032 0.01713,-0.0748 0.04901,-0.151 0.0332,-0.23054 -0.0035,-0.0897 -0.03877,-0.1755 -0.0918,-0.23966 -0.04684,-0.0236 -0.08751,-0.069 -0.140625,-0.073 l -0.302734,-0.0754 c -0.09245,7.6e-4 -0.184896,10e-4 -0.277344,0.002 -0.190014,0.057 -0.384947,0.12734 -0.537109,0.27847 -0.155275,0.13294 -0.288538,0.29535 -0.421875,0.45649 -0.130008,0.25146 -0.243787,0.86248 -0.30514,1.10742 -0.03709,0.1317 -0.03073,0.2704 -0.03438,0.40585 l 0.0016,0.2407 c -0.04516,0.0455 -0.08302,0.10591 -0.148437,0.125 -0.09949,0.0463 -0.209451,0.0568 -0.316407,0.0742 -0.158248,0.004 -0.317191,0.012 -0.474609,-0.01 -0.0337,-0.0241 -0.07991,-0.0183 -0.111328,-0.0469 -0.07116,-0.0445 -0.122994,-0.1115 -0.179687,-0.17187 -0.118001,-0.18109 -0.170081,-0.39322 -0.238282,-0.5957 -0.06697,-0.25157 -0.08537,-0.5119 -0.115234,-0.76954 l -0.06055,-0.875 -0.01758,-0.91601 c 0.0046,-0.26274 -7.39e-4,-0.527 0.04297,-0.78711 0.0091,-0.0592 0.01823,-0.11849 0.02734,-0.17773 0.06414,-0.0148 0.13024,-0.0438 0.197266,-0.0254 0.190579,0.0555 0.367519,0.14758 0.556641,0.20704 l 0.04821,0.004 6.15e-4,5e-5 0.02148,-0.006 0.0059,-0.0137 c -0.01314,-0.0175 -0.02356,-0.0428 -0.01367,-0.0645 l 0.01172,-0.01 0.01758,-0.0215 c 0.0047,-0.0229 -0.02368,-0.0341 -0.01953,-0.0566 l 0.02148,-0.0156 c 0.03551,-0.17085 0.07377,-0.34154 0.08984,-0.51562 -0.0052,-0.0475 -0.01042,-0.0951 -0.01563,-0.14258 -0.03693,-0.0169 -0.07194,-0.0468 -0.115234,-0.0449 -0.221323,-0.0192 -0.440873,0.047 -0.662109,0.0234 -0.06024,-0.0158 -0.114476,-0.0558 -0.146485,-0.10937 -0.006,-0.0332 0.0075,-0.0757 -0.01953,-0.10352 0.0035,-0.0262 0.02012,-0.0667 -0.0078,-0.0879 -0.01436,-0.0296 0.02851,-0.056 0.0039,-0.084 0.0014,-0.27593 0.03627,-0.54995 0.0625,-0.82422 0.0348,-0.28871 0.07379,-0.57685 0.117068,-0.86441 0.01954,-0.11747 0.03915,-0.23492 0.05871,-0.35239 v -0.041 l -0.0039,-0.0391 c -0.02418,-0.0141 -0.02173,-0.0497 -0.04883,-0.0605 -0.0287,-0.0121 -0.05498,-0.0427 -0.08984,-0.0371 l -0.04833,0.002 z"
       id="path888"
       inkscape:connector-curvature="0"
       sodipodi:nodetypes="ccccccccccccccccccccccccccccccccccccccccccccccccccccccccccccccccccccccccccccccccccccccccccccccccccccccccccccccccccccccccccccccccccc" />
    <path
       style="fill:#000000;stroke-width:1"
       d="m 52.110943,285.53115 c -0.177202,0.0202 -0.439885,0.002 -0.483132,0.19522 0.04398,0.23418 0.112819,0.46796 0.09948,0.71029 0.03292,0.65223 0.01389,1.38099 -0.02069,2.13083 0.009,0.75736 0.05022,1.51387 0.09645,2.26961 -0.0051,0.48478 0.0605,0.96487 0.144092,1.44102 0.03057,0.34491 0.293677,0.6971 0.654971,0.7337 0.201803,0.0767 0.451533,0.0693 0.60542,-0.10168 0.179805,-0.1834 0.681365,0.0855 0.654203,-0.31847 0.07,-0.20746 -0.07588,-0.61012 -0.313293,-0.34319 -0.255487,0.15939 -0.587513,0.20308 -0.872673,0.07 -0.267189,-0.15558 -0.288552,-0.52677 -0.349088,-0.8031 -0.02123,-0.57467 -0.555684,-3.09274 0.187419,-2.91708 0.392825,-0.0577 1.038323,0.0585 1.110049,0.004 0.14658,-0.11142 0.245123,-0.53743 -0.107091,-0.54188 -0.310914,-0.002 -0.614799,0.14831 -0.921877,0.0483 -0.565946,-0.03 -0.390183,-0.44557 -0.360874,-0.8703 -0.04441,-0.60357 0.04133,-1.15001 -0.11526,-1.68724 l -0.0054,-0.0133 z"
       id="path886"
       inkscape:connector-curvature="0"
       sodipodi:nodetypes="cccccccccccccscccccc" />
    <path
       style="fill:#000000;stroke-width:1"
       d="m 48.393341,285.21396 c -0.367186,-0.0796 -0.421619,0.2849 -0.407773,0.55761 -0.07415,0.64368 -0.09603,1.2921 -0.16015,1.9363 0.08696,0.42982 -0.390734,0.40977 -0.681789,0.45921 -0.286646,-0.0251 -0.603284,0.11386 -0.46383,0.4539 0.164838,0.17582 0.47271,-0.0176 0.698701,0.0454 0.15679,-0.0222 0.291092,-0.0776 0.374192,-0.11108 0.09624,0.75507 -0.01037,1.52889 0.144309,2.28043 0.06015,0.31915 0.05504,0.6467 0.147744,0.96013 0.07319,0.32906 0.105346,0.67758 0.26281,0.9814 0.108358,0.23195 0.532046,0.26287 0.757061,0.12868 1.065934,-0.0705 1.864879,0.51318 1.857563,-0.57507 -0.250332,-1.01799 -0.11318,-1.68118 -0.336111,-2.64807 0.05589,-0.69862 -0.720223,-0.4214 -0.499476,0.18886 0.04624,0.5745 0.13053,1.13968 0.133515,1.72064 0.131498,1.06997 -1.186914,1.20672 -1.418717,0.72179 -0.485551,-0.82536 -0.477058,-1.86067 -0.535112,-2.74497 -0.01672,-0.30295 0.0012,-0.74936 -0.07193,-1.04035 0.279877,-0.091 0.665669,-0.0793 0.940516,10e-4 0.09459,0.10734 0.125163,-0.30838 0.208938,-0.32417 -0.34618,-0.25962 -1.250572,0.0577 -1.079522,-0.48692 0.02101,-0.31092 0.08092,-0.61756 0.07485,-0.93073 -0.01852,-0.25486 0.09092,-0.5413 0.245372,-0.64734 0.168979,-0.23912 -0.01722,-0.49608 -0.08475,-0.74465 -0.0011,-0.0687 -0.0155,-0.18288 -0.10641,-0.18242 z"
       id="path884"
       inkscape:connector-curvature="0"
       sodipodi:nodetypes="cccccccccccccccccccccccccc" />
    <path
       style="fill:#000000;stroke-width:1"
       d="m 90.131504,285.29332 c -0.435696,-0.0373 -0.366001,0.43654 -0.478894,0.67071 -0.115868,0.33397 -0.08869,0.6854 -0.148746,1.02518 0.03943,0.24177 -0.06477,0.45183 -0.386432,0.47281 -0.304369,0.0341 -0.558899,0.30121 -0.387732,0.54587 0.09884,0.37384 0.718033,-0.29402 0.718733,0.11099 0.143046,1.0957 -0.151448,3.05572 0.597516,4.04985 0.630283,0.83594 1.404343,1.30925 1.947407,0.2135 0.182642,-0.23661 0.44743,-0.53932 0.317294,-0.85658 -0.3212,-0.0612 -0.502949,0.28524 -0.690531,0.48802 -0.245309,0.32977 -0.74619,0.0528 -0.9407,-0.20518 -0.790448,-0.95388 -0.724423,-2.41123 -0.771873,-3.36575 -0.05664,-0.25177 0.05029,-0.5475 0.421539,-0.45106 0.423717,-0.0106 1.197922,0.41669 1.098053,-0.0473 -0.03456,-0.1606 0.115173,-0.31315 0.107793,-0.48633 -0.04268,-0.0961 -0.309108,-0.0426 -0.427787,-0.0525 -0.355093,0.044 -0.200587,-0.0416 -0.561798,-0.0647 -0.247209,-0.059 -0.719554,0.0447 -0.603506,-0.30643 0.01013,-0.26308 0.04622,-0.53296 0.167945,-0.77607 0.160364,-0.31459 0.198693,-0.94457 0.02172,-0.96497 z"
       id="path882"
       inkscape:connector-curvature="0"
       sodipodi:nodetypes="cccccccccccccsccccccc" />
    <path
       style="fill:#000000;stroke-width:1"
       d="m 69.387925,286.26454 c -0.06526,0.002 -0.137684,-0.0126 -0.196842,0.0217 -0.04431,0.038 -0.04784,0.10187 -0.06067,0.1552 -0.0158,0.0782 0.01318,0.16769 0.0856,0.20772 0.08751,0.0537 0.193413,0.0494 0.291941,0.0558 0.156654,0.0248 0.283723,0.13017 0.399595,0.23151 0.06919,0.06 0.130426,0.12871 0.197567,0.19048 0.06537,0.0354 0.148352,0.0441 0.218559,0.0185 0.04392,-0.0353 -0.03793,-0.0954 -0.05529,-0.13296 -0.03313,-0.0458 -0.07558,-0.0829 -0.121478,-0.11521 -0.05517,-0.0491 -0.115297,-0.0983 -0.150609,-0.16381 -0.04298,-0.0332 -0.08763,-0.0646 -0.124465,-0.10511 -0.09985,-0.10034 -0.191101,-0.20879 -0.2794,-0.31927 -0.04784,-0.0526 -0.125055,-0.0384 -0.188857,-0.0441 l -0.0077,-2.3e-4 z"
       id="path880"
       inkscape:connector-curvature="0" />
    <path
       style="fill:#000000;stroke-width:1"
       d="m 28.990909,287.29962 c -0.437563,0.1789 -0.07609,0.62419 -0.08265,0.94721 0.130218,0.47735 0.358966,0.92146 0.626557,1.33468 0.01418,0.27317 -0.215045,0.52917 -0.265808,0.80827 -0.119615,0.35698 -0.150775,0.7385 -0.09309,1.11682 0.0375,0.13536 0.02368,0.26118 -0.06733,0.3725 -0.290951,0.53851 -0.59255,1.07108 -0.987322,1.53984 -0.214767,0.24165 -0.423603,0.61142 -0.07815,0.83807 0.259332,0.37013 0.37673,-0.57047 0.652735,-0.24307 0.163444,0.14713 0.487043,-0.45711 0.186068,-0.4906 -0.141528,-0.36602 0.331542,-0.61563 0.509662,-0.88345 0.205298,-0.24823 0.480296,0.19269 0.7629,0.11718 0.345487,0.0828 0.70831,0.0226 1.060672,0.0577 0.272772,-0.12973 0.518864,-0.0343 0.609621,0.26273 0.270748,0.2439 0.217517,0.64702 0.476824,0.9021 0.202793,0.34075 0.575781,0.56552 0.702051,0.9517 0.130633,0.145 0.595651,0.31762 0.44132,-0.0544 0.10315,-0.37669 -0.219131,-0.55008 -0.365737,-0.83964 0.364091,-0.15263 -0.20965,-0.42874 -0.315957,-0.60827 -0.230587,-0.0915 -0.08212,-0.3781 -0.29918,-0.52411 -0.110713,-0.18318 -0.353034,-0.39614 -0.01005,-0.49205 0.183172,-0.20091 0.502936,-0.2706 0.67268,-0.44044 -0.107659,-0.19363 0.314021,-0.68179 -0.126744,-0.55165 -0.342122,0.10998 -0.486328,0.48069 -0.846978,0.58032 -0.176078,0.13875 -0.569757,0.11789 -0.340114,-0.15829 -0.16182,-0.30281 -0.343821,-0.59864 -0.543036,-0.87885 -0.227733,-0.20805 -0.201542,-0.4646 0.05008,-0.63748 0.231058,-0.26514 0.106297,-0.65841 0.309661,-0.92341 0.194191,-0.2873 0.372438,-0.5863 0.654899,-0.80081 0.257355,-0.1413 0.496927,-0.35596 0.307943,-0.66151 -0.04427,-0.16585 0.299683,-0.65908 -0.06648,-0.40905 -0.342529,0.10637 -0.569624,0.43805 -0.798004,0.6991 -0.171993,0.25369 -0.388541,0.47838 -0.556221,0.74112 -0.166793,0.36062 -0.551275,0.18587 -0.845319,0.21271 -0.45483,0.26071 -0.437455,-0.34355 -0.665822,-0.55993 -0.118999,-0.28056 -0.131823,-0.58985 -0.264419,-0.85349 -0.188886,-0.11396 -0.180107,-0.41202 -0.405244,-0.47163 z m 0.978751,2.97036 c 0.122495,0.17765 -0.250676,0.11344 0,0 z m 0.523484,0.82217 c 0.231423,0.23651 0.432774,0.54125 0.612309,0.82969 0.176938,0.14391 0.21966,0.36613 -0.0793,0.33686 -0.331417,0.0213 -0.66298,0.0184 -0.99182,-0.0326 -0.252828,-0.23692 0.08055,-0.62414 0.196297,-0.87656 0.09268,-0.0898 0.08868,-0.28495 0.262517,-0.25735 z"
       id="path878"
       inkscape:connector-curvature="0" />
    <path
       style="fill:#000000;stroke-width:1"
       d="m 50.086262,287.44121 c -0.19566,-0.008 -0.389374,0.10284 -0.480592,0.27647 0.0085,0.0657 0.108315,0.0555 0.15666,0.083 -0.09677,0.0246 -0.204036,0.0577 -0.272841,0.13738 -0.04713,0.0456 -0.02811,0.11588 0.0062,0.1627 0.0451,0.0682 0.105129,0.13422 0.186447,0.15693 0.09652,0.0545 0.123518,0.17107 0.160628,0.2675 0.03383,0.11467 0.111482,0.21367 0.208762,0.28144 0.0806,0.0426 0.05563,-0.094 0.06408,-0.13893 0.0013,-0.0309 0.0021,-0.0618 0.0032,-0.0927 0.141896,-0.0132 0.28579,-0.0141 0.425349,-0.0449 0.07749,-0.0165 0.110422,-0.0978 0.173062,-0.13795 0.05231,-0.0393 0.0925,-0.12553 0.02972,-0.17301 -0.01153,-0.0596 -0.01426,-0.12769 -0.06799,-0.16806 -0.04656,-0.0433 -0.05406,-0.10939 -0.0429,-0.16901 0.01569,-0.10542 -0.04288,-0.20516 -0.123275,-0.26885 -0.11879,-0.10094 -0.269153,-0.16915 -0.426585,-0.17198 z"
       id="path876"
       inkscape:connector-curvature="0" />
    <path
       style="fill:#000000;stroke-width:1"
       d="m 36.348502,287.85547 c -0.227711,0.12197 -0.459156,0.23918 -0.667969,0.39258 -0.185517,0.18495 -0.382022,0.3603 -0.544922,0.5664 -0.137612,0.22103 -0.264623,0.44936 -0.362298,0.6911 -0.07757,0.20195 -0.133604,0.42053 -0.105734,0.63807 0.02714,0.17169 0.09227,0.33498 0.136001,0.50286 0.07881,0.21341 0.136303,0.45606 0.324267,0.60323 0.117172,0.10248 0.271111,0.15154 0.425004,0.15773 0.196523,-0.002 0.357471,0.0679 0.442132,0.0964 0.115049,0.006 0.24392,0.0871 0.246094,0.21289 0.0066,0.0712 -0.016,0.14188 -0.05078,0.20312 -0.03986,0.25486 -0.100683,0.50983 -0.08789,0.76953 0.0028,0.0551 0.01111,0.12609 0.07031,0.15039 0.05262,0.0115 0.117522,0.0107 0.15625,-0.0332 0.105972,-0.0768 0.228496,-0.12411 0.347656,-0.17578 0.0487,-0.0849 0.117336,-0.1829 0.07813,-0.28516 -0.02746,-0.16264 -0.105423,-0.32783 -0.05664,-0.49414 0.021,-0.15064 0.08358,-0.3178 0.230469,-0.38672 0.197917,-0.0651 0.395833,-0.1302 0.59375,-0.19531 0.203892,0.16812 0.405503,0.34019 0.628906,0.48242 0.07747,0.0469 0.154948,0.0937 0.232422,0.14063 0.119564,0.24701 0.278461,0.48663 0.308594,0.76562 0.0033,0.0358 -0.0048,0.0768 -0.03516,0.0996 -0.145347,0.11688 -0.292508,0.23143 -0.441407,0.34375 -0.248964,0.0714 -0.503082,0.12447 -0.759602,0.16013 -0.264578,-0.0181 -0.538042,-0.006 -0.791153,-0.097 -0.287238,-0.0943 -0.558744,-0.24153 -0.788102,-0.43907 -0.218032,-0.18667 -0.402993,-0.41001 -0.557701,-0.65129 -0.142513,-0.21768 -0.241525,-0.45931 -0.339025,-0.69943 -0.01327,-0.0319 -0.02654,-0.0638 -0.03981,-0.0956 -0.09357,-0.01 -0.214714,-0.004 -0.263672,0.0918 -0.07071,0.11214 -0.104879,0.24665 -0.0918,0.37891 0.02098,0.2586 0.06607,0.51495 0.132813,0.76562 0.135803,0.2204 0.293865,0.42622 0.470703,0.61524 0.213672,0.2043 0.442886,0.41849 0.740221,0.48612 0.264015,0.0781 0.534938,0.13394 0.809047,0.16128 0.241267,0.0262 0.485882,0.0258 0.727296,0.001 0.255395,-0.0245 0.505804,-0.0848 0.752733,-0.15266 0.267832,-0.0885 0.537128,-0.17349 0.798828,-0.27929 l 0.466797,-0.20508 c 0.155765,-0.20716 0.330192,-0.40419 0.445203,-0.63847 0.07831,-0.25133 0.169986,-0.49975 0.215652,-0.75986 0.03783,-0.24433 0.04289,-0.49224 0.03206,-0.7389 -0.006,-0.17502 -0.01566,-0.34991 -0.02299,-0.52488 -0.149818,-0.24889 -0.295621,-0.5001 -0.437367,-0.75367 -0.143258,-0.23381 -0.286549,-0.46761 -0.42982,-0.70141 -0.08594,-0.11458 -0.171875,-0.22917 -0.257813,-0.34375 -0.202383,-0.16894 -0.397955,-0.3475 -0.61914,-0.49219 -0.235035,-0.11665 -0.46517,-0.24535 -0.712891,-0.33398 -0.278729,-0.0286 -0.557416,-0.0618 -0.83789,-0.0664 l -0.328125,-0.006 z m 0.855469,0.68164 c -0.04414,0.28286 -0.129482,0.55656 -0.205078,0.83203 -0.114584,0.36979 -0.229167,0.73958 -0.34375,1.10938 -0.04037,0.0911 -0.08073,0.18229 -0.121094,0.27343 -0.117094,0.10705 -0.286492,0.0957 -0.433594,0.0937 -0.18351,-0.0337 -0.3613,-0.0934 -0.53125,-0.16992 -0.101562,-0.11133 -0.203125,-0.22266 -0.304687,-0.33398 -0.09778,-0.24232 -0.06003,-0.53176 0.100109,-0.73898 0.155569,-0.19857 0.343367,-0.36816 0.525369,-0.54178 0.450999,-0.4319 0.849631,-0.68621 1.313975,-0.52393 z m 0.791015,0.29101 c 0.0255,0.038 0.08232,0.0172 0.107422,0.0566 0.196627,0.14324 0.37046,0.314 0.550781,0.47656 0.167872,0.20047 0.30262,0.42498 0.44336,0.64453 0.08697,0.24656 0.18417,0.49015 0.248047,0.74414 0.02517,0.26309 0.05384,0.52635 0.05273,0.79102 0.0023,0.0497 -0.0014,0.0992 -0.0078,0.14843 l -0.03516,0.0137 c -0.08069,-9.4e-4 -0.119306,-0.0852 -0.166015,-0.13671 -0.06079,-0.0907 -0.118267,-0.18512 -0.199219,-0.25977 -0.161555,-0.22679 -0.332859,-0.44811 -0.462891,-0.69531 -0.111239,-0.25027 -0.197674,-0.51037 -0.291015,-0.76758 -0.08824,-0.2647 -0.18169,-0.52804 -0.25,-0.79883 l -0.03906,-0.19531 0.01953,-0.0234 0.01367,-0.004 z m -0.507812,0.7168 c 0.09825,0.23974 0.202853,0.47734 0.28125,0.72461 0.06055,0.16732 0.121094,0.33464 0.181641,0.50195 -0.0016,0.0607 -0.07035,0.1026 -0.126954,0.0899 -0.260252,0.005 -0.523542,0.03 -0.78125,-0.0195 -0.02186,-0.007 -0.05665,-2e-4 -0.07031,-0.0254 2.85e-4,-0.0338 0.04966,-0.0458 0.03711,-0.082 0.09102,-0.26634 0.193046,-0.52975 0.25586,-0.80469 0.03784,-0.16439 0.109137,-0.31772 0.173828,-0.47266 0.01628,0.0293 0.03255,0.0586 0.04883,0.0879 z m -1.371094,3.68555 h 0.0078 l 0.02148,0.0137 c 0.0038,0.0351 -0.04773,0.0322 -0.06641,0.0312 l -0.01367,-0.0176 0.002,-0.0332 0.04802,0.006 z"
       id="path872"
       inkscape:connector-curvature="0"
       sodipodi:nodetypes="ccccccccccccccccccccccccccccccccccccccccccccccccccccccccccccccccccccccccccccccccccccccccccccccccccc" />
    <path
       style="fill:#000000;stroke-width:1"
       d="m 45.053495,288.50162 c -0.272449,0.0734 -0.237167,0.40455 -0.290422,0.60254 -0.128456,0.27106 0.168587,0.52291 0.303146,0.74272 0.18474,0.22188 0.220496,0.4875 0.02119,0.71157 -0.169825,0.24829 -0.200078,0.55532 -0.263591,0.84123 0.08143,0.27773 -0.06771,0.5494 -0.01593,0.82996 0.08493,0.27027 0.01048,0.5248 -0.180573,0.73161 -0.22512,0.19363 -0.343871,0.45711 -0.158088,0.72131 -0.01664,0.27897 0.359166,0.18718 0.473101,0.0397 0.20129,-0.13107 0.194861,-0.4229 0.430633,-0.50774 0.318863,-0.10766 0.665406,0.17944 0.971095,0.0124 0.983307,0.85367 0.460835,0.63311 1.310296,1.69709 0.377941,-0.034 0.175423,-0.4998 0.105421,-0.77721 -0.03464,-0.25066 -0.255633,-0.41764 -0.354529,-0.64551 -0.06199,-0.18617 -0.369808,-0.50449 -0.04052,-0.58811 0.09876,-0.0682 0.29842,-0.12618 0.358875,-0.0986 -0.128868,-0.16322 -0.125063,-0.51546 -0.225279,-0.60605 -0.208884,-0.0112 -0.0999,0.25375 -0.322363,0.28285 -0.137253,0.17547 -0.309735,0.079 -0.306885,-0.12301 -0.09151,-0.23458 -0.248378,-0.44009 -0.289283,-0.69254 -0.112463,-0.21702 -0.186044,-0.46407 0.01556,-0.64326 0.223864,-0.17047 0.204258,-0.42458 0.236567,-0.66587 0.133453,-0.14681 0.35402,-0.27108 0.380399,-0.49023 -0.01066,-0.13724 0.01453,-0.28787 -0.02569,-0.41385 0.03961,-0.12413 0.0043,-0.26499 0.01246,-0.39613 -0.176472,-0.17783 -0.491371,0.0284 -0.569992,0.22479 -0.09326,0.13711 -0.16669,0.28618 -0.245978,0.4315 -0.177326,-0.008 -0.348379,0.0308 -0.521597,0.0581 -0.328458,-0.3565 -0.480472,-0.93374 -0.687983,-1.21258 -0.02707,-0.0385 -0.07118,-0.068 -0.120054,-0.0667 z m 0.294556,2.836 c 0.237574,0.10516 -0.05093,0.67464 -0.114673,0.27752 -0.02339,-0.10192 0.0122,-0.23367 0.114673,-0.27752 z m 0.613399,0.53537 c 0.113093,0.1927 0.226314,0.42045 0.282654,0.65011 0.194366,0.30533 -0.219601,0.29084 -0.406344,0.21497 -0.359606,-0.0414 -0.24538,-0.33785 -0.122777,-0.55493 -0.02652,-0.14177 0.144441,-0.24702 0.246467,-0.31015 z"
       id="path868"
       inkscape:connector-curvature="0"
       sodipodi:nodetypes="ccccccccccccccccccccccccccccccccccccccc" />
    <path
       style="fill:#000000;stroke-width:1"
       d="m 64.461709,289.05414 c -0.228765,-0.007 -0.471429,0.0589 -0.623737,0.23875 -0.711171,0.52424 -1.041129,1.36992 -1.045819,2.13657 0.02659,0.32167 0.07101,0.64724 0.197894,0.94668 0.08681,0.15346 0.144563,0.32691 0.26045,0.46292 0.105276,0.12741 0.238284,0.2936 0.419763,0.28772 0.162557,0.0219 0.32627,0.0342 0.471277,-0.0615 0.168945,-0.0652 0.319409,-0.17627 0.478236,-0.25313 0.238851,-0.17149 0.446324,-0.38706 0.634493,-0.61222 0.06585,-0.14212 0.197116,-0.24614 0.2362,-0.40096 0.09702,-0.20114 0.13488,-0.42353 0.237908,-0.62186 0.124225,-0.3243 0.0011,-0.6685 -0.107337,-0.9779 -0.03544,-0.17002 -0.148141,-0.30078 -0.274021,-0.41355 -0.2513,-0.28862 -0.534931,-0.48564 -0.811966,-0.71131 -0.02226,-0.0128 -0.0478,-0.0192 -0.07334,-0.0202 z m 0.117769,0.82439 c 0.176584,0.0471 0.311194,0.19153 0.436307,0.31894 0.319098,0.33789 0.325347,0.78398 0.17111,1.16531 -0.06847,0.1845 -0.115042,0.38725 -0.256769,0.53212 -0.498042,0.56162 -1.082799,0.94168 -1.373188,0.23622 -0.337803,-0.55897 -0.279589,-1.22393 0.03565,-1.66464 0.205078,-0.40781 0.626942,-0.39494 0.896847,-0.48651 0.02197,-0.0384 0.04042,-0.093 0.09014,-0.10146 z"
       id="path866"
       inkscape:connector-curvature="0"
       sodipodi:nodetypes="ccccccccccccccccccccccccc" />
    <path
       style="fill:#000000;stroke-width:1"
       d="m 6.575065,289.41992 c -0.2032193,0.0276 -0.4292453,0.0149 -0.5925869,0.16171 -0.1587003,0.10817 -0.3223857,0.21442 -0.4677115,0.33853 -0.2674508,0.36566 -0.4589728,0.79475 -0.4953131,1.24998 -0.056373,0.49659 0.00417,1.02327 0.2555238,1.46208 0.1319033,0.17257 0.3552311,0.22582 0.5392393,0.32293 0.2943094,0.12375 0.60973,0.25609 0.93576,0.19242 0.2622916,-0.0387 0.5222416,-0.0929 0.7859689,-0.12116 0.2076988,-0.0223 0.440117,-0.16728 0.366772,-0.40682 -0.01978,-0.14901 -0.0062,-0.45946 -0.2355134,-0.32592 -0.15586,0.0791 -0.3182399,0.13877 -0.4834501,0.19388 -0.2925656,0.0677 -0.5975513,0.0722 -0.896288,0.0554 -0.1550372,-0.01 -0.323389,-0.0264 -0.4349916,-0.14881 -0.1316732,-0.13259 -0.2270881,-0.29717 -0.3232426,-0.45551 -0.1181041,-0.28376 -0.044875,-0.59941 0.013133,-0.88838 0.066416,-0.2563 0.1822093,-0.50208 0.352562,-0.70591 0.1704929,-0.0951 0.297044,-0.29053 0.5099217,-0.29105 0.1914364,-0.0433 0.3909181,-0.0384 0.5748932,0.0342 0.1634406,0.0652 0.4046539,0.14387 0.4467427,-0.1037 0.086239,-0.23546 -0.1682704,-0.37417 -0.3473862,-0.44888 -0.1573992,-0.0672 -0.3289903,-0.14027 -0.5040336,-0.11498 1e-7,0 2e-7,-1e-5 4e-7,-1e-5 z"
       id="path864"
       inkscape:connector-curvature="0"
       sodipodi:nodetypes="cccccccccccccccccccccc" />
    <path
       style="fill:#000000;stroke-width:1.02079821"
       d="m 12.146957,289.3641 c -0.33983,5.6e-4 -0.617516,0.22068 -0.750613,0.52035 -0.147957,0.12003 -0.152313,0.7445 -0.400972,0.42475 -0.06883,-0.30467 -0.416842,-0.22639 -0.454223,-0.48718 -0.6980071,-0.33259 -2.0332374,-0.0406 -2.2742075,0.72084 -0.119495,0.49345 -0.242481,1.01 -0.104602,1.51411 0.4054111,1.1245 1.2611261,1.19667 2.2384855,0.99228 1.342944,-0.41816 0.984791,-1.37658 1.235334,-2.1869 0.213291,-0.17024 0.0965,-0.53536 0.255883,-0.76649 0.231199,-0.37089 0.52883,0.24026 0.63175,0.44023 0.09964,0.30013 0.140327,0.61264 0.200028,0.92224 0.0065,0.36737 0.09353,0.72792 0.06785,1.09647 -0.08051,0.2102 0.0077,0.4672 0.210088,0.47891 0.128019,-0.11901 0.351798,-0.12483 0.308569,-0.38168 0.04915,-0.34376 -0.04429,-0.97254 -0.04429,-0.97254 -0.05392,-0.0898 -0.0039,-1.15306 0.826813,-1.28642 0.345422,0.67859 0.08297,1.45581 0.235127,2.17118 0.06706,0.36843 0.445086,0.58478 0.798022,0.47124 0.326785,-0.13138 0.706949,-0.0942 1.012475,-0.22593 0.05157,-0.2015 0.221222,-0.70615 -0.184943,-0.51463 -0.268394,0.10341 -0.548415,0.199 -0.835609,0.23646 -0.470653,0.0224 -0.27862,-0.54383 -0.26253,-0.82413 0.02256,-0.28927 0.01395,-0.55387 -0.03172,-0.83678 -0.120226,-0.28999 -0.177664,-0.59639 -0.344905,-0.86437 -0.103521,-0.32014 -0.473623,-0.57438 -0.738863,-0.2633 -0.254702,0.1402 -0.301809,0.61202 -0.559057,0.65237 -0.199669,-0.23839 -0.256695,-0.53492 -0.46372,-0.74405 -0.182332,-0.10045 -0.344359,-0.30218 -0.57017,-0.28707 z m -2.5352485,0.95653 c 0.7194525,-0.0426 1.4238615,0.009 1.4726185,1.13273 -0.03161,0.34205 -0.249071,0.63162 -0.476437,0.87585 -0.287256,0.21481 -0.6742355,0.34096 -1.0375865,0.2787 -0.325827,-0.0935 -0.656794,-0.28575 -0.843112,-0.57443 -0.240112,-0.28104 -0.213699,-0.67728 -0.104113,-1.0117 0.191529,-0.5918 0.912697,-0.69459 0.98863,-0.70115 z"
       id="path862"
       inkscape:connector-curvature="0"
       sodipodi:nodetypes="cccccccccccccccccccccccccccccccccccc" />
    <path
       style="fill:#000000;stroke-width:1"
       d="m 58.039908,288.94336 c -0.127627,0.0579 -0.27728,0.10842 -0.347656,0.24023 -0.123412,0.17253 -0.268473,0.32804 -0.392578,0.5 -0.231771,0.48373 -0.463542,0.96745 -0.695313,1.45118 -0.130659,0.28567 -0.262973,0.5706 -0.392635,0.85672 -0.03644,0.0823 -0.07288,0.16453 -0.109318,0.24679 -0.0089,0.007 -0.02496,0.0335 -0.04102,0.0195 -0.229772,-0.99071 -0.548965,-1.8384 -0.695313,-2.59961 -0.05834,-0.27979 -0.261923,-0.40513 -0.474609,-0.5332 -0.04836,6.9e-4 -0.100413,-0.006 -0.144532,0.0195 -0.07145,0.0267 -0.122868,0.0848 -0.177734,0.13477 -0.02669,0.0556 -0.07185,0.10958 -0.0625,0.17578 0.0084,0.0331 -0.0055,0.0757 0.02148,0.10351 0.120443,0.26498 0.240886,0.52995 0.361329,0.79493 l 0.27539,0.83007 0.259766,0.85743 c 0.140625,0.37109 0.28125,0.74218 0.421875,1.11328 0.02631,0.0403 0.04013,0.0894 0.07617,0.12304 0.02582,0.0261 0.04338,0.0719 0.08594,0.0762 l 0.01563,0.0137 c 0.0634,-0.0124 0.108752,-0.0606 0.158203,-0.0977 0.472773,-0.67773 0.688572,-1.59471 0.951172,-2.26367 0.116664,-0.22187 0.225481,-0.44877 0.367188,-0.65625 0.420577,-0.60522 0.37879,-0.21554 0.578128,-0.34764 0.09972,-0.0875 0.157793,-0.20873 0.228515,-0.31836 0.02798,-0.0557 0.03011,-0.12173 0.0078,-0.17968 -0.03306,-0.11028 -0.07394,-0.21984 -0.08008,-0.33594 0.006,-0.0336 0.02349,-0.0623 0.03906,-0.0918 -0.0042,-0.0491 -0.01465,-0.097 -0.02734,-0.14453 -0.01378,-0.0178 -0.033,-0.046 -0.06055,-0.041 z"
       id="path858"
       inkscape:connector-curvature="0"
       sodipodi:nodetypes="ccccccccccccccccccccccccccccccc" />
    <path
       style="fill:#000000;stroke-width:1"
       d="m 42.168815,289.24609 c -0.299383,0.0301 -0.541918,0.22858 -0.775634,0.40037 -0.201246,0.14999 -0.377493,0.338 -0.495851,0.56057 -0.107118,0.23374 -0.203707,0.48142 -0.205078,0.74219 0.0088,0.31373 0.258916,0.53415 0.413242,0.78385 0.152364,0.24769 0.168974,0.54356 0.204585,0.82445 0.103884,0.858 0.217345,1.90511 0.330021,2.57163 0.07171,0.44245 0.153391,0.88424 0.194535,1.32926 0.02313,0.13957 0.02382,0.34682 0.24043,0.39032 0.186864,0.0365 0.323995,-0.10995 0.320762,-0.24239 l 0.0035,-0.0204 c 0.108211,0.0734 0.282954,-0.0653 0.19336,-0.1504 -0.132026,-0.32908 -0.23921,-0.66366 -0.353516,-0.99662 -0.139835,-0.51805 -0.257869,-1.24779 -0.378906,-1.9174 -0.0072,-0.0495 -0.01432,-0.099 -0.02148,-0.14843 0.256454,0.0279 0.51513,0.0742 0.773438,0.041 0.306826,-0.10927 0.612157,-0.22257 0.916015,-0.33984 0.251033,-0.11248 0.52763,-0.24881 0.642725,-0.51592 0.120432,-0.25067 0.174977,-0.52748 0.209745,-0.80174 0.0321,-0.24667 0.02469,-0.49638 -0.0048,-0.74289 -0.04679,-0.24756 -0.118577,-0.49849 -0.271895,-0.70276 -0.144574,-0.21275 -0.323579,-0.40286 -0.529681,-0.55701 -0.2143,-0.16604 -0.45906,-0.2913 -0.712958,-0.38473 -0.221853,-0.0797 -0.454731,-0.13961 -0.692497,-0.12308 z m 0.322265,0.75977 c 0.251681,0.0783 0.498961,0.17797 0.720421,0.32247 0.252116,0.14305 0.431463,0.39745 0.489288,0.68083 0.07498,0.26121 0.115016,0.53323 0.11927,0.80482 0.0011,0.26724 -0.107286,0.5422 -0.325073,0.70555 -0.22516,0.17459 -0.512811,0.22143 -0.784436,0.27678 -0.245527,0.0395 -0.53759,0.0943 -0.747833,-0.0761 -0.200091,-0.13914 -0.244414,-0.39388 -0.252887,-0.62063 -0.03311,-0.27845 -0.134568,-0.54699 -0.144531,-0.82767 -0.01953,-0.14082 0.08441,-0.25174 0.08812,-0.38901 0.03227,-0.18951 0.08353,-0.38478 0.03493,-0.57629 0.196988,-0.16132 0.432688,-0.29435 0.693359,-0.30078 z"
       id="path856"
       inkscape:connector-curvature="0"
       sodipodi:nodetypes="ccccccccccccccccccccccccccccccccccccc" />
    <path
       style="fill:#000000;stroke-width:1"
       d="m 59.502799,289.3162 c -0.269855,0.007 -0.532944,0.12831 -0.722656,0.32227 -0.0024,0.003 -0.0051,0.005 -0.0078,0.008 -0.132238,0.10663 -0.225176,0.25968 -0.324219,0.42188 -0.173455,0.32622 -0.259816,0.69699 -0.248046,1.0664 2.7e-5,10e-4 2.7e-5,0.003 0,0.004 -7.61e-4,0.2493 0.0396,0.49453 0.134765,0.7207 0.0041,0.009 0.0067,0.0192 0.0078,0.0293 0.01544,0.14338 0.09892,0.27068 0.167968,0.44336 0.0011,0.002 0.0028,0.002 0.0039,0.004 0.184838,0.26014 0.364718,0.52548 0.625,0.65821 8.1e-4,4.1e-4 0.0011,0.002 0.002,0.002 0.462834,0.28487 1.04094,0.0681 1.445317,-0.1367 0.0038,-0.002 0.0077,-0.005 0.01172,-0.007 0.262335,-0.16258 0.474804,-0.26436 0.724656,-0.39921 0.02698,-0.0191 0.03945,-0.0337 0.04492,-0.0476 0.0055,-0.0137 0.0098,-0.0355 -0.002,-0.088 -0.01005,-0.0451 0.0021,-0.0932 0.03125,-0.12356 0.02309,-0.0242 0.02654,-0.0367 0.0293,-0.0571 0.0028,-0.0203 -10e-5,-0.0506 -0.0098,-0.0903 -0.01521,-0.0624 -0.046,-0.14958 -0.07031,-0.23763 -0.04843,-0.0298 -0.08087,-0.0276 -0.125,0.002 -0.05177,0.0352 -0.111296,0.11364 -0.16211,0.19724 -0.0069,0.0122 -0.01546,0.0225 -0.02539,0.0309 -1.00469,0.93812 -2.273379,0.31973 -2.090227,-0.53772 0.09996,-0.034 0.351428,-0.11635 0.432031,-0.13255 l 0.0059,-0.002 c 0.141545,-0.0392 0.287248,-0.11625 0.46875,-0.14453 l 0.0059,-0.002 c 0.21309,-0.0838 0.422449,-0.1944 0.640624,-0.29492 0.843293,-0.61223 -0.0941,-1.4652 -0.986279,-1.60979 -0.0026,10e-5 -0.0052,10e-5 -0.0078,0 z m 0.15625,0.66016 c 0.193232,0.0192 0.398046,0.0642 0.576172,0.16992 0.0027,0.002 0.0053,0.004 0.0078,0.006 0.0528,0.0387 0.124516,0.0871 0.167969,0.17187 0.02173,0.0424 0.03492,0.1053 0.0098,0.16211 -0.0244,0.0551 -0.07499,0.091 -0.132813,0.11719 -0.0018,8.2e-4 -0.0021,0.003 -0.0039,0.004 -0.32888,0.21557 -0.716988,0.28185 -1.074219,0.33398 -0.04158,0.006 -0.08221,-0.0155 -0.101562,-0.0527 -0.09522,-0.1837 -0.107487,-0.41573 -0.03711,-0.61328 -7e-6,-6.7e-4 -7e-6,-10e-4 0,-0.002 0.04771,-0.12449 0.148308,-0.208 0.25586,-0.25195 0.107551,-0.0439 0.225361,-0.0546 0.332031,-0.0449 z"
       id="path854"
       inkscape:connector-curvature="0"
       sodipodi:nodetypes="ccccccccccccccccccccccccccccccccccccccccccccccc" />
    <path
       style="fill:#000000;stroke-width:1"
       d="m 69.77395,289.38477 c -0.118184,0.0433 -0.278612,0.0408 -0.325967,0.18418 -0.04749,0.1415 -0.04249,0.29876 -5.29e-4,0.44093 -0.02886,0.1337 -0.03973,0.27204 -0.0388,0.41004 2.33e-4,0.3711 -7.94e-4,0.74473 0.05034,1.11288 0.02968,0.20035 0.115541,0.38877 0.117504,0.59347 0.02835,0.24603 0.04759,0.49298 0.0671,0.73965 0.0227,0.13007 0.0383,0.26475 0.09016,0.38683 0.103439,0.10483 0.247046,0.043 0.232545,-0.10594 0.05754,-0.0709 0.182607,-0.0774 0.214656,-0.18251 0.04484,-0.0417 0.129739,-0.0504 0.165814,-0.09 -0.02434,-0.10138 -0.02254,-0.20658 -0.03615,-0.30845 -0.05113,-0.12405 -0.05055,-0.27126 -0.190958,-0.33864 -0.09868,-0.0916 -0.05653,-0.23189 -0.114104,-0.34076 -0.07599,-0.16314 -0.01664,-0.34964 -0.06511,-0.5178 -0.02907,-0.1291 -0.119544,-0.24196 -0.113768,-0.38326 -0.03102,-0.14818 0.08716,-0.27739 0.01624,-0.42086 0.01212,-0.12154 0.05982,-0.24513 0.08092,-0.36509 0.06487,-0.0227 0.15779,0.0933 0.177445,-0.0373 0.02193,-0.1251 0.0173,-0.28917 -0.08539,-0.37734 -0.100208,-0.11 0.09574,-0.31174 -0.103145,-0.36918 -0.05012,0.003 -0.091,-0.0306 -0.138684,-0.0308 z"
       id="path852"
       inkscape:connector-curvature="0" />
    <path
       style="fill:#000000;stroke-width:1.07322454"
       d="m 85.775042,291.35056 c -7.79e-4,0.003 -0.0018,0.008 -0.0031,0.0109 -0.04373,0.13449 -0.02337,0.34539 -0.04705,0.54691 -0.01186,0.10067 -0.03731,0.20389 -0.101652,0.28979 -0.06129,0.0818 -0.159163,0.13831 -0.285479,0.1619 -0.123236,0.0459 -0.315051,0.18565 -0.504193,0.24657 -0.09457,0.0305 -0.201071,0.0424 -0.295381,-0.012 -0.08788,-0.0508 -0.140382,-0.15467 -0.169592,-0.29325 l -0.01015,-0.0265 c -0.321567,-0.63031 -0.213307,-1.37703 -0.242449,-1.78935 0.02844,-0.33662 -0.266944,-0.87783 -0.426697,-0.88678 -0.03203,-10e-4 -0.08345,0.0149 -0.156293,0.0818 -0.0041,0.004 -0.0087,0.008 -0.01344,0.0115 -0.554968,0.44601 -0.426579,1.32176 -0.687898,1.80208 -0.0299,0.003 -0.06398,-0.009 -0.08679,-0.0271 -0.0456,-0.0364 -0.05835,-0.0818 -0.06943,-0.13239 -0.01025,-0.0466 -0.01573,-0.10558 -0.01794,-0.17684 -0.173401,-0.71044 -0.0017,-1.67531 -0.732441,-1.98979 -0.05955,-0.0243 -0.133464,-0.0276 -0.208493,-0.01 -0.149968,0.0341 -0.297647,0.15164 -0.348027,0.2865 -8.14e-4,0.002 -0.0018,0.004 -0.0026,0.007 -0.132372,0.29327 -0.140231,0.65181 -0.289528,1.00328 -0.144488,0.4762 -0.158263,0.99823 -0.298006,1.51098 0.0092,0.21472 -0.07007,0.45525 -0.100691,0.66377 -0.01608,0.10958 -0.01716,0.20614 0.0034,0.27377 0.0187,0.0615 0.05186,0.10089 0.123275,0.13305 0.166729,-0.0111 0.332333,-0.13892 0.442995,-0.28207 0.04291,-0.44647 0.0085,-0.93418 0.210782,-1.38865 5.4e-5,-10e-4 0.0024,-0.003 0.0025,-0.004 0.0087,-0.13799 0.05973,-0.32095 0.144453,-0.47391 0.0461,-0.0832 0.09781,-0.15744 0.186529,-0.19228 0.04436,-0.0176 0.101916,-0.0189 0.148854,0.004 0.04689,0.0239 0.08047,0.0646 0.110339,0.11475 0.0035,0.004 0.0064,0.01 0.0091,0.0158 0.121629,0.33488 0.168993,0.67946 0.223429,1.01603 0.08803,0.349 0.184907,0.7094 0.197753,1.07349 -1.03e-4,0.004 -4.76e-4,0.009 -0.0011,0.0128 -0.0087,0.0906 0.01286,0.13353 0.04595,0.16443 0.03308,0.0309 0.08862,0.0505 0.155253,0.0505 0.133269,-10e-6 0.284522,-0.0847 0.315547,-0.1741 0.06822,-0.52188 0.108815,-0.74954 0.19041,-1.05383 -0.0029,-0.064 0.08901,-0.51516 0.118926,-0.65882 0.05805,-0.23568 0.12925,-0.45823 0.245053,-0.60715 0.05738,-0.0755 0.144341,-0.0322 0.153075,0.0758 0.04429,0.54192 0.101208,1.14731 0.20765,1.48607 0.05884,0.18883 0.09352,0.3913 0.154639,0.56321 0.05891,0.16571 0.140184,0.29795 0.28381,0.38702 0.150136,0.0225 0.26447,-0.0402 0.401061,-0.1321 0.131631,-0.0886 0.284748,-0.1933 0.481073,-0.21877 0.07442,-0.0745 0.153362,-0.12511 0.235985,-0.14079 0.09029,-0.0171 0.179276,0.004 0.252826,0.0488 0.135531,0.0807 0.04734,0.27888 0.274856,0.39474 0.333674,0.10925 1.363574,-0.0903 2.061155,-0.22584 0.287744,-0.11083 0.344749,-0.0512 0.617628,-0.27635 0.22647,-0.0983 0.483968,-0.36623 0.539193,-0.60457 0.05522,-0.23837 -0.0066,-0.34347 -0.09346,-0.39126 -0.08692,-0.0478 -0.19735,0.12704 -0.297767,0.23634 -0.118322,0.12879 -0.24049,0.28206 -0.384923,0.38552 -0.465436,0.35863 -0.983706,0.38129 -1.617844,0.43033 -0.127121,0.0178 -0.240142,-0.0199 -0.317411,-0.0931 -0.07727,-0.0732 -0.11995,-0.17187 -0.142078,-0.27579 -0.04426,-0.20782 -0.01524,-0.4381 0.05951,-0.5949 0.0027,-0.005 0.0059,-0.0111 0.0097,-0.0162 0.126622,-0.17047 0.296949,-0.26552 0.457246,-0.35128 0.160295,-0.0857 0.310499,-0.16432 0.420555,-0.28627 0.0015,-9.6e-4 0.0031,-0.003 0.0045,-0.004 0.288224,-0.28562 0.626572,-0.46035 0.82856,-0.65708 0.201988,-0.19674 0.173339,-0.46712 0.1571,-0.63077 -0.01723,-0.17316 -0.07639,-0.31724 -0.19561,-0.40031 -0.0035,-0.002 -0.0066,-0.005 -0.0096,-0.01 -0.137005,-0.12678 -0.383697,-0.21183 -1.046075,-0.0705 -0.711291,0.19971 -1.178287,1.04212 -1.27135,2.07001 z m 1.838328,-1.58582 c 0.01625,-9.8e-4 0.03234,0.003 0.04672,0.0111 0.05023,0.0267 0.09075,0.0611 0.117241,0.10689 0.02649,0.0458 0.03271,0.10056 0.02255,0.14734 -0.02033,0.0935 -0.08104,0.15822 -0.147589,0.22152 -0.06655,0.0632 -0.142755,0.12238 -0.209931,0.17519 -0.06717,0.0528 -0.125369,0.10286 -0.143486,0.12575 -0.0053,0.008 -0.01136,0.0126 -0.0181,0.0175 -0.122214,0.0941 -0.257057,0.2137 -0.409857,0.30647 -0.152799,0.0927 -0.32922,0.1592 -0.521074,0.12966 -0.05739,-0.01 -0.09287,-0.0696 -0.07409,-0.12641 0.03261,-0.0999 0.0377,-0.27791 0.0742,-0.45255 0.03651,-0.17464 0.121037,-0.36367 0.321729,-0.43846 0.304054,-0.1343 0.637416,-0.14626 0.922779,-0.22109 0.0061,-0.002 0.01251,-0.002 0.01891,-0.003 z"
       id="path850"
       inkscape:connector-curvature="0"
       sodipodi:nodetypes="cccccccccccccccccccccccccccccccccccccccccccccccccccccczzcccccccccczcccccccccccccccccccccc" />
    <path
       style="fill:#000000;stroke-width:1"
       d="m 24.063981,289.24899 c -0.316071,0.0228 -0.51869,0.15893 -0.715735,0.3755 -0.193046,0.2483 -0.355207,0.52417 -0.46325,0.8212 -0.09812,0.26268 -0.173798,0.53789 -0.18601,0.81962 -0.0015,0.27714 0.02395,0.55892 0.106531,0.82441 0.08232,0.27144 0.299005,0.48213 0.554254,0.59104 0.274709,0.11677 0.570978,0.18386 0.866784,0.21763 0.327202,0.0353 0.656979,-0.0249 0.973706,-0.10518 0.221137,-0.0665 0.441587,-0.13523 0.661384,-0.20611 0.05784,-0.21836 0.12749,-0.43503 0.15092,-0.66087 -0.06135,-0.0511 -0.144233,-0.005 -0.210844,0.005 -0.09884,0.0368 -0.183081,0.10186 -0.270769,0.15906 -9.91e-4,0.0341 -0.03332,0.0763 -0.07102,0.0605 -0.321814,0.0955 -0.635024,0.18706 -0.967792,0.22984 -0.253892,0.0327 -0.521111,-0.009 -0.738197,-0.14189 -0.136156,-0.0834 -0.297646,-0.17325 -0.378037,-0.31198 -0.118908,-0.2052 -0.145895,-0.45904 -0.15092,-0.69671 -0.0063,-0.2968 0.09528,-0.58699 0.186431,-0.86921 0.350859,-0.51276 0.70952,-0.53493 1.246943,-0.30247 0.526105,-0.12952 0.683351,-0.0503 0.272388,-0.56934 -0.279997,-0.0957 -0.5719,-0.26085 -0.866766,-0.23958 z"
       id="path846"
       inkscape:connector-curvature="0"
       sodipodi:nodetypes="sccccccccccccsssscccs" />
    <path
       style="fill:#000000;stroke-width:1.18209696"
       d="m 67.192683,291.87699 c -0.113094,0.003 -0.228307,0.015 -0.336396,0.0543 -0.04619,0.0457 -0.06113,0.11959 -0.085,0.18195 -0.0347,0.11644 -0.07426,0.23456 -0.07994,0.35843 0.0034,0.20656 0.08761,0.40834 0.216381,0.5524 0.106084,0.12337 0.266907,0.12996 0.410442,0.13184 0.06915,8.7e-4 0.138288,10e-4 0.207433,0.003 0.162612,-0.14619 0.339919,-0.28325 0.448745,-0.48925 0.05371,-0.10006 0.09659,-0.23909 0.03229,-0.34578 -0.03911,-0.0591 -0.115799,-0.0901 -0.115239,-0.17596 -0.03133,-0.0977 -0.0869,-0.18132 -0.134303,-0.26928 -0.188142,-7.7e-4 -0.376299,0.003 -0.564423,-0.001 z"
       id="path818"
       inkscape:connector-curvature="0" />
  </g>
</svg>
