<?xml version="1.0" encoding="UTF-8" standalone="no"?>
<!-- Created with Inkscape (http://www.inkscape.org/) -->

<svg
   xmlns:dc="http://purl.org/dc/elements/1.1/"
   xmlns:cc="http://creativecommons.org/ns#"
   xmlns:rdf="http://www.w3.org/1999/02/22-rdf-syntax-ns#"
   xmlns:svg="http://www.w3.org/2000/svg"
   xmlns="http://www.w3.org/2000/svg"
   xmlns:sodipodi="http://sodipodi.sourceforge.net/DTD/sodipodi-0.dtd"
   xmlns:inkscape="http://www.inkscape.org/namespaces/inkscape"
   width="82mm"
   height="12mm"
   viewBox="0 0 82 12"
   version="1.1"
   id="svg1566"
   inkscape:version="0.92.5 (2060ec1f9f, 2020-04-08)"
   sodipodi:docname="captacha_2.svg">
  <defs
     id="defs1560" />
  <sodipodi:namedview
     id="base"
     pagecolor="#ffffff"
     bordercolor="#666666"
     borderopacity="1.0"
     inkscape:pageopacity="0.0"
     inkscape:pageshadow="2"
     inkscape:zoom="2"
     inkscape:cx="28.324542"
     inkscape:cy="141.2718"
     inkscape:document-units="mm"
     inkscape:current-layer="layer1"
     showgrid="false"
     showguides="true"
     inkscape:guide-bbox="true"
     inkscape:window-width="1600"
     inkscape:window-height="1141"
     inkscape:window-x="0"
     inkscape:window-y="0"
     inkscape:window-maximized="1"
     inkscape:snap-global="false">
    <sodipodi:guide
       position="36.388745,5.9999998"
       orientation="0,1"
       id="guide1424"
       inkscape:locked="false"
       inkscape:label=""
       inkscape:color="rgb(0,0,255)" />
    <sodipodi:guide
       position="46.86571,9.9999997"
       orientation="0,1"
       id="guide1426"
       inkscape:locked="false"
       inkscape:label=""
       inkscape:color="rgb(0,0,255)" />
    <sodipodi:guide
       position="55.752422,1.9999999"
       orientation="0,1"
       id="guide1428"
       inkscape:locked="false"
       inkscape:label=""
       inkscape:color="rgb(0,0,255)" />
    <sodipodi:guide
       position="50.420395,3.9999999"
       orientation="0,1"
       id="guide1430"
       inkscape:locked="false"
       inkscape:label=""
       inkscape:color="rgb(0,0,255)" />
    <sodipodi:guide
       position="55.565333,7.9999998"
       orientation="0,1"
       id="guide1432"
       inkscape:locked="false"
       inkscape:label=""
       inkscape:color="rgb(0,0,255)" />
  </sodipodi:namedview>
  <metadata
     id="metadata1563">
    <rdf:RDF>
      <cc:Work
         rdf:about="">
        <dc:format>image/svg+xml</dc:format>
        <dc:type
           rdf:resource="http://purl.org/dc/dcmitype/StillImage" />
        <dc:title></dc:title>
      </cc:Work>
    </rdf:RDF>
  </metadata>
  <g
     inkscape:label="Calque 1"
     inkscape:groupmode="layer"
     id="layer1"
     transform="translate(0,-285)">
    <path
       style="fill:#000000;stroke-width:1"
       d="m 61.714739,285.28227 c -0.460037,0.0583 -0.098,0.48739 -0.162067,0.71609 0.04796,0.51638 -1.35e-4,1.03463 0.02821,1.55073 0.04006,0.30507 0.06121,0.61662 0.06337,0.92505 0.01795,0.4211 0.05872,1.1177 0.112125,1.82765 0.02592,0.62071 0.0063,1.00105 -0.02128,1.50059 -0.165617,0.13446 -0.358291,0.32219 -0.516126,0.45119 -0.354054,0.28314 -0.375465,0.17653 -0.905721,0.18048 -0.439286,-0.0908 -1.012707,-0.2988 -0.982139,-0.73357 -0.01784,-0.49962 0.707092,-0.4389 1.077505,-0.64766 0.337212,-0.26298 0.708617,-0.60606 0.69141,-1.01096 -0.03613,-0.37384 -0.388695,-0.66799 -0.86081,-0.52469 -0.966699,0.0944 -1.631964,0.86471 -1.675348,1.61213 -0.117637,0.40999 -0.174213,0.88675 0.195129,1.22954 0.412891,0.39473 1.036378,0.61236 1.644841,0.7401 0.530884,0.10156 0.476074,-0.0265 0.857468,-0.20166 0.468422,-0.14449 0.43942,-0.77109 0.449451,0.12428 0.09444,0.24968 0.475982,-0.0488 0.475982,-0.0488 l -0.07632,-1.71758 c -0.07588,-0.68779 0.07999,-1.56276 -0.02289,-2.34096 -0.102882,-0.7782 -0.114063,-2.91672 -0.122776,-3.46819 -0.0282,-0.087 -0.130215,-0.15075 -0.249962,-0.16378 z m -1.225464,4.62184 c 0.29282,0.26233 -0.52348,1.01179 -1.056696,0.84025 -0.719418,-0.15323 0.368579,-0.68109 0.86022,-0.79436 l 0.09832,-0.0246 z"
       id="path1579"
       inkscape:connector-curvature="0"
       sodipodi:nodetypes="ccccccccccccccccccczcccccccc" />
    <path
       style="fill:#000000;stroke-width:1"
       d="m 7.5611249,285.74363 c -0.4720205,0.027 -0.2919501,0.40875 -0.3181168,0.61479 7.293e-4,0.24484 0.038867,0.48659 -0.020091,0.72798 0.043801,0.61584 0.066336,1.35223 0.2339388,2.29236 0.038883,0.42137 0.046714,0.8432 0.1316344,1.25906 0.05209,0.43859 0.1264104,0.87052 0.21487,1.30155 -0.041797,0.45283 -0.6315851,0.51892 -0.9842666,0.6303 -0.3544709,0.0586 -0.8378464,3.6e-4 -1.0250661,-0.35191 -0.3853665,-0.46991 -0.4157998,-1.20157 -0.0237,-1.67803 0.1977295,-0.2974 0.5458169,-0.56869 0.9191964,-0.51745 0.2255104,0.0433 0.7629763,0.32525 0.650448,-0.13379 0.00389,-0.33154 -0.1677676,-0.60842 -0.543038,-0.52885 -0.3808147,-0.0565 -0.7152913,0.12261 -1.0163785,0.3383 -0.3300127,0.20646 -0.5283972,0.55566 -0.6807977,0.90165 -0.1532176,0.50849 -0.1227622,1.07148 0.042268,1.57308 0.1543559,0.46746 0.3423715,0.60578 0.7995005,0.79016 0.457129,0.18438 0.8274996,0.0291 1.1921258,0.0105 0.2783522,0.0407 0.6061733,-0.32486 0.7903205,-0.24783 -0.048831,0.31493 0.264236,0.56205 0.4654406,0.23418 0.3867624,-0.0825 0.4891621,-0.56864 0.062061,-0.65862 -0.2303031,-0.31564 -0.2026962,-0.73118 -0.3263779,-1.08858 -0.1045413,-0.39672 -0.1124841,-0.81127 -0.1998149,-1.21357 -0.029607,-1.0766 -0.2635532,-1.48905 -0.217126,-2.47925 -0.0021,-0.28317 0.1602241,-1.25757 0.027879,-1.50778 -0.040379,-0.0938 -0.1063104,-0.18195 -0.1749095,-0.26823 z"
       id="path1577"
       inkscape:connector-curvature="0"
       sodipodi:nodetypes="ccccccccccccccczccccccccc" />
    <path
       style="fill:#000000;stroke-width:1.00000012"
       d="m 75.343277,285.89182 c -0.05867,0.0221 -0.09957,0.0521 -0.124542,0.094 -0.02941,0.0495 -0.04269,0.11571 -0.04651,0.18965 -0.0076,0.14789 0.0254,0.3227 0,0.46768 -0.0016,0.32589 0.04283,1.16956 -0.06127,1.49818 -0.0065,0.0221 -0.02906,0.0361 -0.05271,0.0331 -0.139819,-0.0178 -0.330496,-0.007 -0.468707,0.0506 -0.0691,0.029 -0.124772,0.0691 -0.159162,0.12041 -0.03396,0.0507 -0.04824,0.11409 -0.03411,0.19998 0.02125,0.0705 0.06074,0.10769 0.11834,0.13436 0.05859,0.0271 0.135787,0.0401 0.216525,0.0522 0.498205,-0.0801 0.464719,0.39315 0.382801,0.8469 -0.09414,0.98352 0.269458,1.95485 0.202054,2.89026 0.25491,0.73149 0.41844,0.55471 0.942579,0.53898 0.0011,-4.2e-4 0.0021,-5.8e-4 0.0031,-0.001 0.265764,-0.0575 0.544219,-0.0813 0.81597,-0.0641 0.04958,0.0545 0.138804,0.0205 0.179849,0.0266 0.03691,-0.0257 0.06158,-0.0804 0.04393,-0.16175 -7.94e-4,-0.002 -0.0013,-0.005 -0.0016,-0.008 -7.94e-4,-0.0812 0.03515,-0.15828 0.04134,-0.21084 0.0031,-0.0263 5.29e-4,-0.0421 -0.0098,-0.0553 -0.01024,-0.0129 -0.03257,-0.0274 -0.08113,-0.0362 -0.590873,0.0414 -1.542088,0.44635 -1.451591,-0.36583 l -0.0021,-0.006 c -1.03e-4,-6.6e-4 1e-4,-10e-4 0,-0.002 -0.118179,-0.40872 -0.107757,-0.82906 -0.208772,-1.21698 -0.0013,-0.004 -0.0019,-0.009 -0.0021,-0.0134 -0.0399,-0.97266 -0.194711,-1.26118 -0.09951,-1.99721 5.29e-4,-0.006 0,0 0.0041,-0.0155 0.09411,-0.17648 0.226197,-0.2553 0.393774,-0.2527 0.153461,0.002 0.300876,0.0435 0.406693,0.0708 0.06749,-0.10872 0.177806,-0.21706 0.240295,-0.31884 0.03429,-0.0558 0.05208,-0.10637 0.04651,-0.14728 -0.0055,-0.0405 -0.03109,-0.0799 -0.106452,-0.12351 -0.138134,-0.0476 -0.281416,-0.0146 -0.435631,0.0217 -0.156433,0.0369 -0.32548,0.0768 -0.498679,0.0103 -0.01122,-0.004 -0.02013,-0.0127 -0.02532,-0.0233 -0.07004,-0.13978 -0.07285,-0.80372 -0.04466,-0.96179 0.02819,-0.15806 0.0691,-0.31656 0.06718,-0.45165 -2.65e-4,-0.003 -2.65e-4,-0.006 0,-0.009 0.04988,-0.26117 0.0046,-0.60661 -0.190685,-0.80357 z"
       id="path1413"
       inkscape:connector-curvature="0"
       sodipodi:nodetypes="cccccccccccccccccccccccccccccccccccccccccc" />
    <path
       style="fill:#000000;stroke-width:1.09503758"
       d="m 73.283089,289.47183 c -0.289879,0.0723 -0.586831,0.17572 -0.781439,0.37716 -0.207251,0.2382 -0.377287,0.49794 -0.509024,0.77072 -0.144192,0.30142 -0.170256,0.51699 -0.165557,0.94766 -0.0026,0.39656 0.110381,0.79925 0.327367,1.07127 0.214487,0.27253 0.369639,0.28836 0.635248,0.45469 0.254396,0.15246 0.497369,0.0945 0.774259,0.13686 0.310807,0.0529 0.757557,-0.1824 1.04052,-0.36287 0.08132,-0.052 0.162634,-0.10397 0.243952,-0.15595 -0.04617,-0.31942 0.279553,-0.58089 -0.164667,-0.53884 -0.117216,0.0183 -0.139476,0.0457 -0.191833,0.0829 -0.238933,0.13935 -0.522934,0.5405 -0.781018,0.51951 -0.271149,-0.0403 -0.494315,-0.0329 -0.736456,-0.19399 -0.206014,-0.12159 -0.394127,-0.41371 -0.327903,-0.73396 0.03944,-0.24764 0.348888,-0.3725 0.546921,-0.4474 0.315954,-0.14735 0.661682,-0.29524 0.838153,-0.57306 0.181219,-0.246 0.26894,-0.55694 0.160956,-0.83749 -0.097,-0.2411 -0.334533,-0.45154 -0.638933,-0.50793 -0.08827,-0.0176 -0.180814,-0.0201 -0.270543,-0.009 z m 0.123897,0.54041 c 0.241538,0.1929 0.278287,0.5477 0.04629,0.75658 -0.175666,0.0915 -0.388611,0.10017 -0.586802,0.13241 -0.247602,-0.17091 -0.246261,-0.51308 -0.03281,-0.70347 0.141367,-0.13272 0.363369,-0.19466 0.573322,-0.18552 z"
       id="path1411"
       inkscape:connector-curvature="0"
       sodipodi:nodetypes="ccccccccccccccccccccccccc" />
    <path
       style="fill:#000000;stroke-width:1"
       d="m 38.23217,285.31046 c -0.389326,0.0107 -0.282324,0.47982 -0.260235,0.73419 0.01669,0.46363 0.04409,0.92796 5.93e-4,1.39096 -0.0449,0.29486 0.213542,0.80684 -0.239127,0.86166 -0.374764,0.004 -0.308443,0.49466 10e-4,0.54331 0.376037,-0.028 0.17125,0.45276 0.23279,0.6969 0.01414,0.7475 0.04601,1.496 0.122122,2.23993 0.07601,0.35529 0.120982,0.72308 0.285159,1.05087 0.183084,0.30087 0.59452,0.24868 0.892222,0.20748 0.263801,-0.0569 0.803734,0.0338 0.777894,-0.37137 0.03799,-0.28092 -0.1539,-0.41658 -0.41796,-0.3233 -0.272113,0.0253 -0.593696,0.1887 -0.83555,-0.006 -0.161599,-0.27235 -0.219678,-0.60669 -0.293775,-0.91563 -0.09796,-0.81063 -0.135295,-1.62837 -0.121509,-2.44467 0.07707,-0.22198 0.404495,-0.33617 0.495103,-0.0662 0.34296,0.18284 0.615457,-0.18861 0.498524,-0.50692 0.11452,-0.44381 -0.471737,-0.21866 -0.718654,-0.15916 -0.396057,0.0478 -0.330109,-0.49165 -0.288111,-0.74502 0.06082,-0.3516 -0.02728,-0.75121 0.123174,-1.06769 0.01948,-0.27593 -0.07858,-0.62857 -0.09017,-0.94838 0.01148,-0.11928 -0.02764,-0.20204 -0.163493,-0.17137 z"
       id="path1573"
       inkscape:connector-curvature="0" />
    <path
       style="fill:#000000;stroke-width:1.0584501"
       d="m 33.627466,285.57223 c -0.391359,0.0575 -0.215611,0.56891 -0.277457,0.84402 -0.0092,0.49023 -0.08593,0.97669 -0.08813,1.46678 -0.06009,0.41543 -0.589261,0.10921 -0.840611,0.26863 -0.251925,0.15047 -0.165642,0.61209 0.161078,0.56887 0.23728,-0.0301 0.73533,-0.28784 0.629869,0.15839 -0.02785,0.37007 -0.10086,0.73665 -0.08209,1.10963 -0.01359,0.6722 -0.0575,1.36138 0.150074,2.0112 0.07894,0.31908 0.237529,0.61917 0.502793,0.8224 0.273436,0.28592 0.643535,0.4433 1.036245,0.34143 0.303672,-0.06 0.602266,-0.15178 0.890783,-0.2429 0.106376,-0.16949 0.195751,-0.78631 -0.169546,-0.59186 -0.252663,0.15527 -0.579891,0.31901 -0.88281,0.22172 -0.340261,-0.1543 -0.742388,-0.33967 -0.872324,-0.71843 -0.09576,-0.33682 -0.21511,-0.66335 -0.250442,-1.01493 -0.09031,-0.3217 0.0467,-0.63708 0.02826,-0.96262 0.0092,-0.33067 -0.03722,-0.77576 0.06918,-1.09974 0.215714,-0.27781 1.062942,0.18176 0.898502,-0.35222 -0.0014,-0.36439 -0.532892,-0.28896 -0.791641,-0.40372 -0.03465,-0.31495 0.02611,-0.63658 0.01638,-0.95775 0.05898,-0.55569 0.357266,-1.4904 -0.128104,-1.4689 z"
       id="path1571"
       inkscape:connector-curvature="0"
       sodipodi:nodetypes="cccccccccccccccccccccc" />
    <path
       style="fill:#000000;stroke-width:1"
       d="m 44.626495,285.85659 c -0.63247,0.61208 -0.219277,1.58744 -0.280404,2.36084 -0.0128,0.66422 -0.01986,1.31745 -0.144147,1.95643 0.03026,0.82049 -1.141133,0.26913 -1.561753,0.0603 -0.701585,-0.52089 -1.344503,0.18944 -1.985073,0.41398 -0.659355,-0.11431 -0.515277,0.59821 -0.02505,0.72255 0.337032,0.39639 -1.166119,0.40509 -0.315698,0.88885 0.754656,-0.1133 0.168201,0.41406 0.283562,0.74326 0.643111,0.0378 1.29848,0.42878 1.932785,0.10625 0.595998,-0.28625 1.286773,-0.51137 1.764086,0.0599 0.70018,0.29179 1.404415,-0.12985 1.864112,-0.64034 0.326679,-0.66035 1.362815,-0.77417 1.632835,-0.0175 0.258071,0.71539 1.26953,0.34415 1.401415,-0.22462 -0.182034,-0.0168 -0.997596,-0.10647 -0.390036,-0.2367 0.614007,-0.16127 0.916927,0.19925 0.984179,0.78659 0.586941,0.51054 1.609708,0.15463 2.335492,0.0451 0.369953,-0.18636 0.718507,0.66024 1.254262,0.24581 0.293024,-0.1489 1.009483,-0.59071 0.803393,-0.12445 -0.54272,1.01083 -0.900049,2.05355 -1.430372,3.0665 -0.528779,0.20627 0.329298,0.56129 0.506237,0.20501 -0.07426,-0.38691 0.111248,-0.7488 0.31758,-1.12792 0.286891,-0.72815 0.620569,-1.45492 1.037611,-2.15727 0.139609,-0.15727 0.970612,-0.49422 0.801604,-0.64204 -0.482338,-0.0708 -0.603228,-0.40772 -0.278829,-0.73255 -0.203709,-0.27603 0.0011,-1.06657 -0.479734,-0.6107 -0.189164,0.6864 -1.124334,0.38832 -1.494015,0.0986 0.317741,-0.54341 1.227676,0.0855 1.496432,-0.65649 -0.202384,-0.6779 -1.229148,0.0977 -1.706534,-0.25178 -0.388476,-0.009 -0.698684,0.46825 -1.212711,0.40248 -0.642503,0.21905 0.229953,-0.52612 -0.374763,-0.64937 -0.792799,-0.11825 -1.131441,0.72581 -1.762988,0.98358 -0.559854,-0.18167 -1.498556,0.09 -1.461636,-0.72201 -0.418522,-0.86875 -0.415041,0.95782 -1.059704,0.49749 -0.872798,0.22479 -0.867431,-1.17047 -1.723762,-1.13112 -0.922098,0.0526 -0.688272,-0.9745 -0.65398,-1.57873 -0.127734,-0.67806 0.211654,-1.2178 0.110764,-1.8911 -0.03165,-0.1 -0.08735,-0.19766 -0.185125,-0.24875 z m 0.507378,4.33976 c 0.458502,-0.10478 1.00963,0.69757 0.224155,0.51781 -0.391091,0.13066 -0.841695,-0.51393 -0.224155,-0.51781 z m 7.270107,0.59333 c 0.114401,0.82799 -1.976328,0.27984 -0.733678,0.14215 0.242879,-0.0558 0.489789,-0.0913 0.733678,-0.14215 z m -5.469502,0.24223 c 0.391558,-0.15305 0.744041,0.26742 0.160389,0.16066 -0.155371,0.0314 -0.560631,-0.17505 -0.160389,-0.16066 z m -2.62616,0.37341 c 0.164128,0.2795 -0.878583,0.0893 -1.149902,0.16441 -0.276712,0.0581 -1.092077,-0.004 -0.376008,-0.18128 0.50678,0.0348 1.021757,0.12482 1.52591,0.0168 z m 7.689213,0.42298 c 0.324687,-0.0191 -0.188372,0.13792 0,0 z m 0.911723,0.065 c 0.322648,0.0784 -0.188469,0.13097 0,0 z m -7.279172,0.0997 c 1.028208,0.009 -1.148557,1.18459 -0.381266,0.31326 0.05389,-0.17474 0.143582,-0.40929 0.381266,-0.31326 z m 4.817413,0.13669 c 0.474659,0.17313 1.520487,0.01 1.680312,0.32979 -0.647229,0.1457 -1.414478,0.2696 -1.965309,-0.19726 -0.07387,-0.14549 0.228156,-0.11404 0.284997,-0.13253 z m -6.635675,-0.15007 c 0.119445,0.39618 -0.950719,0.5839 -1.348721,0.69771 -0.380652,0.12968 -0.887401,-0.18586 -0.25337,-0.25742 0.523747,-0.18483 1.074632,-0.29567 1.602091,-0.44029 z m 0.570412,0.0502 c 0.276696,0.0324 -0.282173,0.13559 0,0 z m -0.08263,0.13377 c 0.607271,0.0966 -0.287826,0.62628 0,0 z m 9.215966,0.29799 c 0.0075,0.48922 -1.021272,0.0725 -0.25057,0.0348 0.08445,-0.002 0.169016,-0.0123 0.25057,-0.0348 z"
       id="path1569"
       inkscape:connector-curvature="0"
       sodipodi:nodetypes="cccccccccccccccccccccccccccccccccccccccccccccccccccccccccccccccccccccccccc" />
    <path
       style="fill:#000000;stroke-width:1"
       d="m 40.291414,292.16746 -9.61e-4,-0.003 c -0.0017,0.0139 -0.0031,0.0279 -0.0038,0.0419 0.0017,-0.013 0.003,-0.0265 0.0048,-0.0392 z"
       id="path1567"
       inkscape:connector-curvature="0" />
    <path
       style="fill:#000000;stroke-width:1"
       d="m 48.164705,288.50036 c -0.154354,0.002 -0.311945,0.0339 -0.445905,0.11269 -0.07274,0.0585 -0.09435,0.15714 -0.09973,0.24588 -0.0039,0.0902 0.01302,0.19184 0.0831,0.25513 0.04618,0.0422 0.118876,0.0565 0.173878,0.0227 0.04774,-0.0306 0.09392,-0.0657 0.150733,-0.0778 0.05654,-0.0133 0.11744,-0.0478 0.129044,-0.10972 -8.6e-4,-0.0453 0.01071,-0.0964 0.06364,-0.10547 0.04343,-0.0169 0.0937,-0.0237 0.128031,-0.0579 0.02139,-0.0445 -0.0269,-0.0805 -0.03746,-0.12067 -0.0053,-0.0527 0.06862,-0.0727 0.06106,-0.12621 -0.01468,-0.0367 -0.0654,-0.0312 -0.09833,-0.0376 -0.03595,-0.003 -0.07216,-0.001 -0.10806,-0.001 z"
       id="path1561"
       inkscape:connector-curvature="0" />
    <path
       style="fill:#000000;stroke-width:1"
       d="m 24.429101,287.8207 c -0.422602,0.0244 -0.661797,0.42978 -1.007397,0.61626 -0.294878,0.21199 -0.525445,0.49628 -0.6308,0.84682 -0.166941,0.29564 -0.247834,0.62803 -0.231953,0.96685 -0.0254,0.40001 0.03852,0.80002 0.190657,1.17062 0.10247,0.35813 0.354392,0.69147 0.729268,0.78536 0.37898,0.17048 -0.145065,0.60971 0.08479,0.89709 0.198698,0.26073 0.479629,-0.0657 0.684377,-0.15704 -0.138398,-0.2356 -0.03869,-0.61635 0.157546,-0.82295 0.365582,-0.0636 0.805257,0.11545 1.028745,0.42586 0.229341,0.31936 0.441483,0.68408 0.467256,1.08397 -0.03547,0.40979 -0.576966,0.34787 -0.872609,0.43559 -0.348645,-0.037 -0.751301,0.0437 -1.047226,-0.15913 -0.338904,-0.0302 -0.599845,-0.2197 -0.833116,-0.45331 -0.25664,-0.2201 -0.460439,-0.49209 -0.601808,-0.79938 -0.119685,-0.31629 -0.410062,-0.073 -0.280751,0.17487 0.197029,0.50821 0.492583,0.98269 0.893139,1.35723 0.458202,0.39121 1.075119,0.54835 1.664707,0.58242 0.404081,-0.0122 0.805234,-0.11353 1.15371,-0.32312 0.389426,-0.24569 0.915961,-0.23215 1.221,-0.61287 0.206133,-0.31769 0.564056,-0.585 0.629406,-0.96442 0.04981,-0.34682 0.28254,-0.71831 0.04673,-1.04761 -0.181741,-0.33631 -0.06604,-0.72571 -0.197357,-1.07618 -0.04893,-0.38568 -0.126354,-0.75432 -0.354487,-1.08194 -0.182492,-0.35394 -0.475487,-0.63289 -0.697661,-0.96201 -0.276323,-0.29024 -0.568444,-0.58391 -0.919925,-0.77726 -0.312458,-0.0607 -0.63555,-0.007 -0.949442,-0.0752 -0.10912,-0.008 -0.218886,-0.0115 -0.326798,-0.0306 z m 0.388607,0.76326 c 0.301412,0.24216 -0.08116,0.65793 -0.09168,0.96693 -0.160683,0.34073 -0.275649,0.69775 -0.421754,1.04254 -0.110951,0.27779 -0.189454,0.58166 -0.398138,0.80638 -0.406956,0.18527 -0.732223,-0.27144 -0.68468,-0.6441 -0.03817,-0.70075 0.335158,-1.368 0.821922,-1.8476 0.218212,-0.18121 0.492232,-0.29546 0.774331,-0.32415 z m 1.103292,0.42891 c 0.520673,0.31322 0.836819,0.86046 1.136212,1.37111 0.176356,0.48882 0.23921,1.0125 0.26211,1.52851 -0.01002,0.56646 -0.227569,1.15588 -0.326616,1.1783 -0.09905,0.0224 -0.669423,-0.35601 -0.681754,-0.66661 -0.1527,-0.33273 -0.146743,-0.70631 -0.03078,-1.00837 -0.08102,-0.32826 -0.240881,-0.64164 -0.262016,-0.98462 0.0071,-0.38077 -0.113231,-0.76902 -0.110083,-1.16123 0.0024,-0.0856 -0.01275,-0.17342 0.01293,-0.25711 z m -0.706417,1.125 c 0.100877,0.45783 0.252039,0.9008 0.334532,1.36168 -0.0064,0.22111 -0.407785,0.008 -0.585945,0.0665 -0.267011,0.0359 -0.546103,-0.1812 -0.304727,-0.43232 0.109139,-0.35176 0.439889,-0.60429 0.513052,-0.97464 l 0.01921,-0.018 0.02387,-0.003 z"
       id="path1559"
       inkscape:connector-curvature="0"
       sodipodi:nodetypes="ccccccccccccccccccccccccccccccccccccccccccccccccccccccc" />
    <path
       style="fill:#000000;stroke-width:1"
       d="m 19.173608,288.30622 c -0.359158,0.12665 -0.545352,0.48938 -0.812664,0.73561 -0.278273,0.31509 -0.546035,0.63849 -0.840902,0.93861 -0.177402,0.19897 -0.32374,0.42427 -0.540491,0.58544 -0.260971,0.13539 -0.0501,0.70753 0.198508,0.39941 0.07818,-0.1197 0.445766,-0.29082 0.296593,-0.0169 -0.198352,0.24731 -0.533657,0.4299 -0.620356,0.74147 0.08419,0.27877 0.282583,0.51348 0.388675,0.78146 0.23516,0.12224 0.516792,0.15142 0.723133,0.31322 0.304867,-0.12007 0.18182,0.42228 0.48695,0.27078 0.246698,-0.0906 0.414934,-0.46015 0.713142,-0.34873 -0.08131,0.18344 -0.118029,0.57617 0.171526,0.62673 0.262064,-0.11943 0.435177,-0.38534 0.691899,-0.52159 0.212441,-0.18583 0.461563,-0.34799 0.727698,-0.43504 0.353344,0.11816 -0.136058,0.408 -0.22934,0.57448 -0.213266,0.18551 -0.533178,0.47509 -0.213275,0.73578 0.254826,0.1753 0.314337,-0.29433 0.551252,-0.35552 0.297987,-0.28656 0.51718,-0.67241 0.889949,-0.87464 0.16202,-0.0135 0.663511,0.10184 0.452731,-0.19968 -0.188397,-0.19441 0.214563,-0.65155 -0.206319,-0.56421 -0.08228,-0.0764 -0.162226,-0.26404 -0.330747,-0.13058 -0.195916,0.11325 -0.475444,0.22555 -0.684775,0.1245 0.229453,-0.14919 0.246943,-0.42386 0.235536,-0.67764 -0.195435,-0.13153 -0.443706,0.33201 -0.722361,0.21646 -0.16162,-0.20569 0.24751,-0.40922 0.32591,-0.59761 0.213172,-0.24044 0.488917,-0.47121 0.490342,-0.82197 -0.07414,-0.41125 -0.435211,0.13934 -0.656338,0.1241 -0.247957,-0.0431 0.10987,-0.5194 -0.243612,-0.41362 -0.252609,0.0983 -0.454824,0.25032 -0.624986,0.46332 -0.183231,0.0396 -0.005,-0.25893 -0.183625,-0.34188 -0.175627,-0.14376 0.116708,-0.67061 -0.27457,-0.52378 -0.16229,0.17958 -0.222466,-0.016 -0.07613,-0.13008 0.106207,-0.21458 -0.24014,-0.36299 0.0071,-0.55826 0.02689,-0.0636 -0.04331,-0.10326 -0.09044,-0.11968 z m -0.198437,0.9586 c 0.03464,0.2001 -0.47691,0.25669 -0.148442,0.0522 0.04416,-0.0281 0.0935,-0.0574 0.148442,-0.0522 z m -0.822689,0.46767 c 0.317185,0.052 -0.19312,0.19556 0,0 z m 1.091923,0.42375 c 0.320821,0.0834 -0.154558,0.36127 -0.304625,0.38559 -0.18186,0.0445 -0.555061,0.3306 -0.628655,0.20974 0.237709,-0.19024 0.359093,-0.55747 0.69715,-0.56137 0.07694,-0.0202 0.15595,-0.0387 0.23613,-0.034 z m 1.424719,0.0475 c 0.08523,0.18649 -0.399799,0.43191 -0.293187,0.15353 0.08808,-0.0691 0.20845,-0.079 0.293187,-0.15353 z m -1.014408,0.60617 c 0.270474,0.2526 -0.07618,0.55605 -0.283926,0.70453 -0.304823,0.27544 -0.599393,0.56808 -0.925308,0.8165 -0.145617,0.10316 -0.557768,-0.0853 -0.242357,-0.1852 0.226743,0.0425 0.149226,-0.20956 0.132704,-0.28351 0.250091,-0.30006 0.598335,-0.48669 0.875067,-0.75798 0.13626,-0.11701 0.298597,-0.19371 0.44382,-0.29434 z m -1.380278,0.37052 c 0.173494,0.0967 -0.297994,0.30402 -0.105063,0.0605 0.02565,-0.0323 0.0634,-0.0565 0.105063,-0.0605 z"
       id="path1557"
       inkscape:connector-curvature="0" />
    <path
       style="fill:#000000;stroke-width:1"
       d="m 58.549093,288.99317 c -0.236632,0.0702 -0.418248,0.28206 -0.476402,0.51866 -0.09564,0.29402 -0.25499,0.56059 -0.367325,0.84782 -0.196938,0.34088 -0.330589,0.71337 -0.476704,1.07772 -0.09233,0.24893 -0.163547,0.51046 -0.294938,0.74166 -0.172677,0.0742 -0.15179,-0.23234 -0.19538,-0.33815 -0.06185,-0.22102 -0.106808,-0.44698 -0.13005,-0.67483 -0.05583,-0.2526 -0.02225,-0.53489 -0.181719,-0.75539 -0.100034,-0.12674 -0.08318,-0.29075 0.05553,-0.36958 0.07226,-0.2543 -0.310962,-0.23837 -0.44744,-0.1395 -0.236018,0.12475 -0.155136,0.40776 -0.129307,0.61769 0.04159,0.27569 0.174427,0.52688 0.228772,0.80019 0.02645,0.19345 0.130516,0.36213 0.145064,0.55829 0.05643,0.28657 0.117928,0.5726 0.175242,0.85926 0.01375,0.1806 0.157282,0.38694 0.356278,0.36046 0.127923,-0.10261 0.212434,-0.25988 0.308151,-0.39552 0.230289,-0.34621 0.358359,-0.74341 0.49378,-1.13273 0.182705,-0.36474 0.274017,-0.77282 0.50659,-1.11291 0.101868,-0.21279 0.209708,-0.4316 0.421964,-0.54948 0.110482,-0.15418 0.242255,-0.29518 0.378002,-0.39897 -0.04355,-0.16186 -0.04877,-0.42998 -0.24311,-0.4781 -0.04304,-0.009 -0.08749,-0.0162 -0.126997,-0.0366 z"
       id="path1549"
       inkscape:connector-curvature="0" />
    <path
       style="fill:#000000;stroke-width:1"
       d="m 30.472711,289.29688 c -0.690172,-0.0214 -1.257315,0.61103 -1.297762,1.27533 -0.03395,0.30294 0.05107,0.60165 0.148654,0.88375 0.252859,1.62915 0.525012,3.11159 0.562145,5.11413 0.02493,0.45203 0.552602,0.49291 0.601126,0.028 0.138011,-0.38702 -0.06766,-0.78931 -0.102308,-1.16839 -0.09367,-0.92584 -0.07675,-1.28331 -0.180752,-1.79815 -0.104005,-0.51484 0.392534,-0.3627 0.677806,-0.29122 0.344106,0.0439 0.658686,-0.12691 0.906678,-0.34853 0.549833,-0.44931 0.912019,-1.23345 0.654155,-1.93214 -0.359,-0.82409 -1.010996,-1.66396 -1.969742,-1.76276 z m 0.158203,0.76367 c 0.764485,0.22983 1.310475,1.12681 1.046139,1.90295 -0.168034,0.40146 -0.549425,0.75848 -0.999442,0.78022 -0.495727,0.0142 -0.800977,-0.50208 -0.737522,-0.99679 -0.113995,-0.80823 -0.322022,-2.0702 0.690825,-1.68638 z"
       id="path1547"
       inkscape:connector-curvature="0"
       sodipodi:nodetypes="cccccczcccccccccc" />
    <path
       style="fill:#000000;stroke-width:1.02787375"
       d="m 13.060715,289.29219 c -0.30585,0.0271 -0.447349,0.33918 -0.626027,0.54488 -0.153659,0.22717 -0.325801,0.44027 -0.378538,0.71654 -0.07037,0.24337 0.05127,0.53148 0.256938,0.67104 0.270067,0.13435 0.254442,-0.25559 0.351787,-0.40325 0.1079,-0.0868 0.231657,-0.33179 0.322738,-0.31861 0.141339,0.30992 0.152365,0.65958 0.20305,0.9923 0.03575,0.35953 0.04355,0.72107 0.08539,1.08022 -0.04666,0.20455 0.24096,0.6666 0.403798,0.34974 0.136146,-0.20965 0.442248,-0.34185 0.382957,-0.64022 0.0094,-0.30777 0.02288,-0.62811 0.162503,-0.90921 0.0241,-0.25449 0.205777,-0.43898 0.356589,-0.62521 0.107818,-0.24718 0.45051,-0.26332 0.41449,0.0552 0.04033,0.35558 0.01537,0.71794 0.102859,1.06784 0.05292,0.36818 0.08311,0.80761 0.409172,1.04718 0.239069,0.15163 0.535143,0.11803 0.804173,0.13492 0.247481,-0.0736 0.488789,-0.11187 0.736927,-0.0927 0.282268,-0.10711 0.131587,-0.45284 0.01155,-0.6301 -0.134024,-0.20884 -0.370346,-0.0555 -0.550556,-0.0176 -0.225032,0.059 -0.474778,0.10445 -0.697675,0.0178 -0.204706,-0.16059 -0.211562,-0.45436 -0.267172,-0.69028 -0.03711,-0.38214 -0.01348,-0.77121 -0.115883,-1.14551 -0.06571,-0.26136 -0.06822,-0.57867 -0.312594,-0.74892 -0.217211,-0.16182 -0.524358,-0.12148 -0.723324,0.0505 -0.21874,0.17967 -0.359485,0.44424 -0.47081,0.70132 -0.07217,0.13356 -0.121217,0.47215 -0.285126,0.4302 -0.138046,-0.35405 -0.137653,-0.76003 -0.354041,-1.08191 -0.07494,-0.17258 0.03145,-0.51347 -0.223171,-0.55608 z"
       id="path1543"
       inkscape:connector-curvature="0" />
    <path
       style="fill:#000000;stroke-width:1"
       d="m 36.036409,287.95559 c -0.09032,0.004 -0.171739,0.0495 -0.248507,0.0929 -0.110749,0.0744 -0.153032,0.23785 -0.08062,0.3527 0.03562,0.0582 0.08767,0.10658 0.145669,0.14181 0.07104,0.0298 0.150058,0.0183 0.224966,0.0242 0.103948,0.003 0.212365,0.006 0.309308,-0.0379 0.06233,-0.0164 0.124775,-0.0356 0.177502,-0.074 0.05333,-0.0357 0.10269,-0.0849 0.16905,-0.0938 0.06339,0.0134 0.110222,-0.0522 0.121036,-0.10732 0.0045,-0.0727 -0.06475,-0.11954 -0.118894,-0.15437 -0.07996,-0.0501 -0.17492,-0.0736 -0.26895,-0.0689 -0.111133,-0.004 -0.221472,-0.0196 -0.331482,-0.0346 -0.03228,0.007 -0.06395,-0.003 -0.07457,-0.0347 -0.0075,-0.004 -0.01612,-0.006 -0.02451,-0.006 z"
       id="path1541"
       inkscape:connector-curvature="0" />
    <path
       style="fill:#000000;stroke-width:1.03324449"
       d="m 9.8968304,289.4307 c -0.1535325,0.0165 -0.2970562,0.0806 -0.4015932,0.19576 -0.00244,0.003 -0.00514,0.006 -0.00807,0.008 -0.2973343,0.24431 -0.5300521,0.57491 -0.5953265,0.95251 4.44e-5,10e-4 4.44e-5,0.003 0,0.004 -0.1012455,0.42958 -0.104845,0.88329 0.00605,1.30972 0.00118,0.004 0.00185,0.009 0.00201,0.0138 0.00501,0.19145 0.096387,0.35775 0.2078597,0.5247 0.00328,0.004 0.00599,0.009 0.00807,0.0142 0.024474,0.0678 0.070033,0.11206 0.1311736,0.15943 0.06114,0.0473 0.1360319,0.096 0.1977695,0.16951 l -0.00404,-0.006 c 0.1789197,0.16829 0.4111456,0.27152 0.6558685,0.28254 0.163855,0.007 0.332908,-0.0229 0.498459,-0.0625 0.15166,-0.043 0.283939,-0.15045 0.423791,-0.25225 0.0038,-0.002 0.0079,-0.004 0.01211,-0.006 0.220579,-0.0984 0.424609,-0.25011 0.506532,-0.4702 0.0018,-0.004 0.0037,-0.007 0.0061,-0.0103 0.118189,-0.20062 0.293707,-0.33984 0.379394,-0.52067 6.72e-4,-7e-4 0.0013,-10e-4 0.0021,-0.002 0.116947,-0.21772 0.19718,-0.47939 0.108975,-0.70026 -0.0012,-0.004 -0.0019,-0.009 -0.0021,-0.0142 -0.0433,-0.25044 -0.0575,-0.50449 -0.226022,-0.66798 -7.05e-4,-6.7e-4 -0.0013,-10e-4 -0.0021,-0.002 -0.155482,-0.16107 -0.350035,-0.28602 -0.552947,-0.3915 -7.04e-4,-6.7e-4 -0.0012,-0.002 -0.0021,-0.002 -0.430511,-0.0759 -0.618656,-0.18998 -0.728521,-0.40786 -0.0098,-0.0217 -0.01909,-0.0427 -0.03834,-0.0565 -0.0262,-0.0188 -0.06287,-0.0334 -0.106957,-0.0424 -0.08818,-0.018 -0.198567,-0.0147 -0.288582,-0.0182 -6.72e-4,10e-6 -0.0013,10e-6 -0.002,0 l -0.03027,-0.002 c -6.72e-4,1e-5 -0.0013,1e-5 -0.002,0 -0.05223,-0.005 -0.1042133,-0.005 -0.1553907,0 z m 0.060542,0.76081 c 0.00545,0 0.010873,6.9e-4 0.016144,0.002 0.2183256,0.0317 0.4551376,0.022 0.6881566,0.0888 0.0014,6.4e-4 0.0027,10e-4 0.004,0.002 0.194274,0.0705 0.363463,0.17743 0.540839,0.23612 0.005,0.001 0.0097,0.003 0.01412,0.006 0.223341,0.13727 0.390735,0.36784 0.433882,0.63165 0.0015,0.006 0.0023,0.0121 0.0021,0.0182 -0.03365,0.23575 -0.12196,0.4741 -0.270419,0.66595 -0.0012,0.002 -0.0026,0.004 -0.004,0.006 -0.193088,0.20876 -0.401122,0.43262 -0.680085,0.55698 -0.321684,0.14519 -0.724888,0.0302 -0.9161972,-0.2684 l -0.00201,-0.004 c -0.154077,-0.21606 -0.2586039,-0.46939 -0.2805098,-0.73861 -0.031329,-0.20947 -0.054801,-0.43181 -0.012109,-0.65183 8.97e-4,-0.007 0.00294,-0.0138 0.00605,-0.0202 0.034498,-0.0614 0.042644,-0.17349 0.072649,-0.28252 0.015003,-0.0546 0.038018,-0.11138 0.08274,-0.1554 0.042246,-0.0415 0.1033559,-0.0662 0.1775889,-0.0707 l 0.012109,-0.002 c 0.037587,-0.008 0.074789,-0.0166 0.1150291,-0.0202 z"
       id="path1539"
       inkscape:connector-curvature="0"
       sodipodi:nodetypes="ccccccccccccccccccccccccccccccccccccccccccccccccccccccccc" />
    <path
       style="fill:#000000;stroke-width:1.17785776"
       d="m 63.793589,289.58467 c -0.877988,0.51694 -1.327618,1.66809 -0.91682,2.61876 0.280276,0.67616 1.017468,1.38449 1.800665,1.04547 0.968297,-0.3915 1.527632,-1.43083 1.650746,-2.42492 -0.03241,-1.04235 -1.351558,-1.03568 -2.115587,-1.1841 -0.139684,-0.0183 -0.279453,-0.0359 -0.419004,-0.0552 z m 0.920201,0.70395 c 0.870397,0.28682 1.30803,1.51897 0.422821,2.06344 -0.846373,0.65056 -2.082541,-0.3839 -1.725212,-1.34067 0.171347,-0.51096 0.7575,-0.94941 1.302391,-0.72277 z"
       id="path1537"
       inkscape:connector-curvature="0" />
    <path
       style="fill:#000000;stroke-width:1.00000012"
       d="m 68.732734,289.66221 c -0.147936,0.0254 -0.263046,0.12911 -0.376953,0.21875 -0.09839,0.25381 -0.174809,0.51516 -0.253907,0.77539 -0.102213,0.28971 -0.204427,0.57943 -0.30664,0.86914 -0.06473,0.25776 -0.137348,0.51457 -0.167969,0.7793 -8.58e-4,0.25138 -0.0024,0.51184 0.0957,0.74804 0.06104,0.0686 0.18223,0.0169 0.197266,-0.0664 0.103379,-0.24668 0.158412,-0.509 0.222656,-0.76758 0.003,-0.0314 0.02877,-0.0758 -0.002,-0.10352 0.0522,-0.25357 0.128668,-0.50213 0.230469,-0.74023 0.06815,-0.10559 0.134641,-0.21365 0.226562,-0.30078 l 0.04492,-0.0117 c 0.06616,0.0149 0.0062,0.0974 0.04102,0.13477 0.06134,0.23018 0.09905,0.46561 0.144531,0.69922 l -0.01929,-0.0444 c 0.05046,0.25123 0.07783,0.51137 0.113036,0.76701 0.01628,0.10612 0.03255,0.21224 0.04883,0.31836 0.0618,0.0579 0.163924,0.11912 0.244141,0.0586 0.23655,-0.0518 0.393074,-0.28272 0.419922,-0.51367 0.102864,-0.48047 0.205729,-0.96093 0.308593,-1.4414 0.03425,-0.10717 0.06172,-0.22902 0.15625,-0.30079 0.04469,-0.0113 0.105441,0.0237 0.09766,0.0742 0.07747,0.2806 0.154947,0.5612 0.232421,0.8418 0.07096,0.3125 0.141927,0.625 0.212891,0.9375 0.09097,0.21216 0.203604,0.43299 0.40625,0.55859 0.02444,0.0107 0.06982,0.0231 0.08789,-0.008 0.224609,-0.0749 0.449218,-0.14974 0.673828,-0.22461 0.05982,-0.0541 0.111508,-0.13499 0.09375,-0.21875 l -0.01367,-0.01 c -0.201057,0.0282 -0.395888,0.0891 -0.597656,0.11328 -0.205045,-0.20464 -0.27808,-0.49541 -0.358223,-0.76452 -0.142767,-0.49685 -0.276244,-0.99633 -0.411733,-1.49519 -0.07031,-0.26952 -0.139025,-0.53945 -0.210513,-0.80865 -0.06727,-0.0495 -0.150678,0.0131 -0.222656,-0.0137 -0.08222,-0.006 -0.169425,0.008 -0.230469,0.0684 -0.09961,0.38606 -0.199219,0.77213 -0.298828,1.1582 -0.03262,0.11488 -0.105976,0.25935 -0.246094,0.25195 -0.08164,0.002 -0.08494,-0.099 -0.107422,-0.15429 -0.08594,-0.2793 -0.171875,-0.5586 -0.257812,-0.83789 -0.04109,-0.15824 -0.05997,-0.32078 -0.08203,-0.48243 -0.02962,-0.0212 -0.03975,-0.0768 -0.08594,-0.0684 l -0.04821,0.004 z"
       id="path2343"
       inkscape:connector-curvature="0" />
    <path
       style="fill:#000000;stroke-width:1.14100277"
       d="m 36.192786,289.59335 c 0.122901,-0.0371 0.253179,0.0147 0.362817,0.0878 0.147845,0.12279 0.185511,0.36967 0.183718,0.5839 -8.35e-4,0.25624 -0.0091,0.51331 0.02005,0.76781 0.03849,0.42284 0.09787,0.85118 0.238069,1.23803 0.0736,0.18728 0.159157,0.38951 0.134159,0.60836 -0.08354,0.0315 -0.08744,0.2061 -0.202167,0.18362 -0.103898,-0.009 -0.224454,0.0423 -0.30943,-0.0643 -0.07532,-0.12189 -0.201764,-0.17093 -0.263785,-0.30786 -0.09567,-0.23293 -0.08413,-0.50615 -0.06479,-0.76054 -0.0069,-0.32627 -0.112339,-0.62955 -0.149509,-0.94969 -0.04635,-0.29254 -0.06286,-0.59319 -0.04217,-0.89096 2.2e-5,-0.15569 -0.03211,-0.34033 0.05756,-0.46624 0.01044,-0.0118 0.02248,-0.0232 0.03547,-0.0298 z"
       id="path1511"
       inkscape:connector-curvature="0" />
    <path
       style="fill:#000000;stroke-width:1"
       d="m 17.202386,291.52409 c 0.02358,0.002 0.03356,0.0298 0.03054,0.0502 -0.0018,0.0248 -0.02984,0.0428 -0.05289,0.0326 -0.02544,-0.01 -0.0367,-0.0458 -0.01655,-0.066 0.0097,-0.0111 0.02463,-0.0166 0.0389,-0.0168 z"
       id="path1507"
       inkscape:connector-curvature="0" />
    <path
       style="fill:#000000;stroke-width:1"
       d="m 66.848412,291.87719 c -0.09253,0.0237 -0.187858,0.0331 -0.283009,0.0373 -0.131675,0.0178 -0.23129,0.12429 -0.284023,0.24036 -0.05174,0.1069 -0.08814,0.22069 -0.143081,0.32605 -0.04766,0.13028 0.01422,0.27232 0.104856,0.36781 0.09178,0.0983 0.21497,0.16198 0.342034,0.20168 0.07804,0.0147 0.101303,-0.0696 0.112647,-0.12754 0.03603,-0.0661 0.11004,-0.0957 0.170762,-0.13423 0.05021,-0.0309 0.107443,-0.0529 0.150997,-0.0931 0.0697,-0.0804 0.04881,-0.20762 -0.02142,-0.28074 -0.04052,-0.0419 -0.03619,-0.10716 0.0229,-0.1244 0.03572,-0.0478 0.03381,-0.12196 0.0048,-0.1722 -0.04873,-0.0455 -0.08556,-0.10129 -0.106003,-0.16509 -0.01386,-0.0301 -0.03306,-0.0799 -0.07145,-0.076 z"
       id="path1499"
       inkscape:connector-curvature="0" />
  </g>
</svg>
