<?xml version="1.0" encoding="UTF-8" standalone="no"?>
<!-- Created with Inkscape (http://www.inkscape.org/) -->

<svg
   xmlns:dc="http://purl.org/dc/elements/1.1/"
   xmlns:cc="http://creativecommons.org/ns#"
   xmlns:rdf="http://www.w3.org/1999/02/22-rdf-syntax-ns#"
   xmlns:svg="http://www.w3.org/2000/svg"
   xmlns="http://www.w3.org/2000/svg"
   xmlns:sodipodi="http://sodipodi.sourceforge.net/DTD/sodipodi-0.dtd"
   xmlns:inkscape="http://www.inkscape.org/namespaces/inkscape"
   width="100mm"
   height="100mm"
   viewBox="0 0 99.999995 100"
   version="1.1"
   id="svg8"
   inkscape:version="0.92.4 (5da689c313, 2019-01-14)"
   sodipodi:docname="pignon_burger.svg"
   inkscape:export-filename="C:\Users\SESA512482\Documents\perso\bitmap.png"
   inkscape:export-xdpi="604.72528"
   inkscape:export-ydpi="604.72528">
  <defs
     id="defs2" />
  <sodipodi:namedview
     id="base"
     pagecolor="#ffffff"
     bordercolor="#666666"
     borderopacity="1.0"
     inkscape:pageopacity="0.0"
     inkscape:pageshadow="2"
     inkscape:zoom="0.35"
     inkscape:cx="431.72481"
     inkscape:cy="-434.64047"
     inkscape:document-units="mm"
     inkscape:current-layer="layer2"
     showgrid="false"
     inkscape:window-width="1600"
     inkscape:window-height="1141"
     inkscape:window-x="0"
     inkscape:window-y="0"
     inkscape:window-maximized="1"
     showguides="false"
     fit-margin-top="0"
     fit-margin-left="0"
     fit-margin-right="0"
     fit-margin-bottom="0" />
  <metadata
     id="metadata5">
    <rdf:RDF>
      <cc:Work
         rdf:about="">
        <dc:format>image/svg+xml</dc:format>
        <dc:type
           rdf:resource="http://purl.org/dc/dcmitype/StillImage" />
        <dc:title />
      </cc:Work>
    </rdf:RDF>
  </metadata>
  <g
     inkscape:groupmode="layer"
     id="layer2"
     inkscape:label="colors"
     style="display:inline"
     transform="translate(-25.502782,-81.009348)">
    <g
       id="g1082"
       transform="matrix(0.78618438,0,0,0.78618438,17.565122,25.524522)"
       style="fill:#000000;fill-opacity:1;stroke:none;stroke-width:1.27196622">
      <rect
         ry="2"
         rx="2"
         y="111.6301"
         x="48.694748"
         height="10"
         width="50"
         id="rect1056"
         style="color:#000000;clip-rule:nonzero;display:inline;overflow:visible;visibility:visible;opacity:1;isolation:auto;mix-blend-mode:normal;color-interpolation:sRGB;color-interpolation-filters:linearRGB;solid-color:#000000;solid-opacity:1;fill:#000000;fill-opacity:1;fill-rule:evenodd;stroke:none;stroke-width:0.12719662;stroke-linecap:round;stroke-linejoin:miter;stroke-miterlimit:4;stroke-dasharray:none;stroke-dashoffset:50.34469986;stroke-opacity:1;marker:none;color-rendering:auto;image-rendering:auto;shape-rendering:auto;text-rendering:auto;enable-background:accumulate" />
      <rect
         ry="2"
         rx="2"
         y="129.17314"
         x="48.694748"
         height="10"
         width="50"
         id="rect1056-3"
         style="color:#000000;clip-rule:nonzero;display:inline;overflow:visible;visibility:visible;opacity:1;isolation:auto;mix-blend-mode:normal;color-interpolation:sRGB;color-interpolation-filters:linearRGB;solid-color:#000000;solid-opacity:1;fill:#000000;fill-opacity:1;fill-rule:evenodd;stroke:none;stroke-width:0.12719662;stroke-linecap:round;stroke-linejoin:miter;stroke-miterlimit:4;stroke-dasharray:none;stroke-dashoffset:50.34469986;stroke-opacity:1;marker:none;color-rendering:auto;image-rendering:auto;shape-rendering:auto;text-rendering:auto;enable-background:accumulate" />
      <rect
         ry="2"
         rx="2"
         y="146.71619"
         x="48.694748"
         height="10"
         width="50"
         id="rect1056-6"
         style="color:#000000;clip-rule:nonzero;display:inline;overflow:visible;visibility:visible;opacity:1;isolation:auto;mix-blend-mode:normal;color-interpolation:sRGB;color-interpolation-filters:linearRGB;solid-color:#000000;solid-opacity:1;fill:#000000;fill-opacity:1;fill-rule:evenodd;stroke:none;stroke-width:0.12719662;stroke-linecap:round;stroke-linejoin:miter;stroke-miterlimit:4;stroke-dasharray:none;stroke-dashoffset:50.34469986;stroke-opacity:1;marker:none;color-rendering:auto;image-rendering:auto;shape-rendering:auto;text-rendering:auto;enable-background:accumulate" />
    </g>
    <path
       style="opacity:1;fill:#000000;fill-opacity:1;fill-rule:nonzero;stroke:none;stroke-width:7.83999634;stroke-linecap:round;stroke-linejoin:round;stroke-miterlimit:4;stroke-dasharray:none;stroke-dashoffset:15.49606228;stroke-opacity:1"
       d="m 112.68787,96.703687 c -0.20004,-0.242569 -0.42222,-0.489955 -0.66602,-0.744598 -7.79887,-8.150928 -9.91453,6.613911 -20.128779,1.702176 C 81.67883,92.74952 92.46942,82.156131 81.071782,81.076016 69.674163,79.995875 77.542712,92.35719 66.336423,95.238952 c -11.206279,2.881762 -9.55794,-11.927244 -19.221196,-5.43121 -9.663287,6.496059 4.507882,10.670508 -2.446873,19.997338 -6.954783,9.32686 -15.219248,-2.76842 -18.626645,8.26424 -3.407407,11.03268 10.435516,5.06631 10.986459,16.47412 0.550952,11.40779 -13.759549,7.68547 -9.316693,18.09245 4.442844,10.40697 11.479871,-2.90796 19.27875,5.24294 7.798892,8.15092 -5.86184,14.54361 4.352412,19.45535 10.21425,4.91173 7.153331,-9.52218 18.550957,-8.44205 11.397621,1.08012 4.778778,14.59691 15.985067,11.71515 11.206293,-2.88176 -0.520898,-11.68096 9.142397,-18.17703 9.663282,-6.49606 13.183552,7.82006 20.138322,-1.50678 6.95479,-9.32686 -7.95113,-8.37365 -4.54373,-19.40631 3.40741,-11.03267 15.41974,-2.61633 14.86878,-14.02412 -0.55094,-11.4078 -11.6612,-1.14834 -16.10405,-11.5553 -4.30401,-10.08177 9.52902,-11.73044 3.30745,-19.234015 z M 97.112095,113.75281 c 9.576105,12.00779 7.636525,29.53044 -4.332156,39.1378 -11.968596,9.60747 -29.434048,7.66154 -39.01004,-4.34635 -9.575754,-12.00782 -7.636038,-29.53016 4.332492,-39.13739 11.968434,-9.607339 29.433614,-7.6616 39.009704,4.34594 z"
       id="path1059"
       inkscape:connector-curvature="0"
       sodipodi:nodetypes="ccccsssssssssssssccccccccc" />
  </g>
  <g
     inkscape:groupmode="layer"
     id="layer4"
     inkscape:label="stuff"
     style="display:inline"
     transform="translate(-25.502782,-81.009348)">
    <g
       id="g1322"
       transform="translate(-1.9377038,-4.4099472)" />
  </g>
</svg>
