<?xml version="1.0" encoding="UTF-8" standalone="no"?>
<!-- Created with Inkscape (http://www.inkscape.org/) -->

<svg
   xmlns:dc="http://purl.org/dc/elements/1.1/"
   xmlns:cc="http://creativecommons.org/ns#"
   xmlns:rdf="http://www.w3.org/1999/02/22-rdf-syntax-ns#"
   xmlns:svg="http://www.w3.org/2000/svg"
   xmlns="http://www.w3.org/2000/svg"
   xmlns:sodipodi="http://sodipodi.sourceforge.net/DTD/sodipodi-0.dtd"
   xmlns:inkscape="http://www.inkscape.org/namespaces/inkscape"
   width="100mm"
   height="100mm"
   viewBox="0 0 99.999995 100"
   version="1.1"
   id="svg8"
   inkscape:version="0.92.4 (5da689c313, 2019-01-14)"
   sodipodi:docname="pignon.svg"
   inkscape:export-filename="C:\Users\SESA512482\Documents\perso\bitmap.png"
   inkscape:export-xdpi="604.72528"
   inkscape:export-ydpi="604.72528">
  <defs
     id="defs2" />
  <sodipodi:namedview
     id="base"
     pagecolor="#ffffff"
     bordercolor="#666666"
     borderopacity="1.0"
     inkscape:pageopacity="0.0"
     inkscape:pageshadow="2"
     inkscape:zoom="0.98994949"
     inkscape:cx="-148.31664"
     inkscape:cy="145.72926"
     inkscape:document-units="mm"
     inkscape:current-layer="layer2"
     showgrid="false"
     inkscape:window-width="1600"
     inkscape:window-height="1141"
     inkscape:window-x="0"
     inkscape:window-y="0"
     inkscape:window-maximized="1"
     showguides="false"
     fit-margin-top="10"
     fit-margin-right="10"
     fit-margin-bottom="10"
     fit-margin-left="10" />
  <metadata
     id="metadata5">
    <rdf:RDF>
      <cc:Work
         rdf:about="">
        <dc:format>image/svg+xml</dc:format>
        <dc:type
           rdf:resource="http://purl.org/dc/dcmitype/StillImage" />
        <dc:title></dc:title>
      </cc:Work>
    </rdf:RDF>
  </metadata>
  <g
     inkscape:groupmode="layer"
     id="layer2"
     inkscape:label="colors"
     style="display:inline"
     transform="translate(-14.166434,-95.285646)">
    <path
       style="opacity:1;fill:#000000;fill-opacity:1;fill-rule:nonzero;stroke:none;stroke-width:7.83999681;stroke-linecap:round;stroke-linejoin:round;stroke-miterlimit:4;stroke-dasharray:none;stroke-dashoffset:15.49606228;stroke-opacity:1"
       d="m 93.914505,117.84112 c -0.160036,-0.19406 -0.337778,-0.39197 -0.532816,-0.59568 -6.239098,-6.52074 -7.931624,5.29113 -16.103025,1.36174 -8.171393,-3.92939 0.461079,-12.40411 -8.657032,-13.2682 -9.118095,-0.86411 -2.823255,9.02494 -11.788286,11.33035 -8.965023,2.30541 -7.646352,-9.54179 -15.376956,-4.34497 -7.73063,5.19685 3.606304,8.53641 -1.957499,15.99787 -5.563826,7.46148 -12.175398,-2.21473 -14.901315,6.6114 -2.725927,8.82614 8.348412,4.05304 8.789166,13.17929 0.440762,9.12623 -11.007638,6.14837 -7.453354,14.47395 3.554275,8.32558 9.183896,-2.32635 15.423,4.19436 6.239113,6.52074 -4.689472,11.63488 3.481929,15.56428 8.1714,3.92939 5.722665,-7.61775 14.840766,-6.75365 9.118096,0.8641 3.823022,11.67753 12.788053,9.37213 8.965034,-2.30541 -0.416719,-9.34477 7.313918,-14.54162 7.730627,-5.19685 10.546843,6.25604 16.110658,-1.20543 5.563828,-7.46148 -6.360905,-6.69891 -3.634985,-15.52505 2.725925,-8.82613 12.335783,-2.09306 11.895023,-11.21929 -0.44075,-9.12624 -9.328957,-0.91867 -12.88324,-9.24424 -3.443211,-8.06542 7.623212,-9.38435 2.645962,-15.38721 z M 80.54674,132.02715 c 7.660883,9.60624 6.10922,23.62435 -3.465725,31.31024 -9.574875,7.68598 -23.547236,6.12923 -31.208032,-3.47708 -7.660604,-9.60625 -6.108831,-23.62413 3.465994,-31.30991 9.574748,-7.68587 23.546891,-6.12929 31.207763,3.47675 z"
       id="path1059"
       inkscape:connector-curvature="0"
       sodipodi:nodetypes="ccccssssssssssssscsccccccc" />
  </g>
  <g
     inkscape:groupmode="layer"
     id="layer4"
     inkscape:label="stuff"
     style="display:inline"
     transform="translate(-14.166434,-95.285646)">
    <g
       id="g1322"
       transform="translate(-1.9377038,-4.4099472)" />
  </g>
</svg>
